<?xml version="1.0" encoding="UTF-8"?>
<!DOCTYPE svg PUBLIC "-//W3C//DTD SVG 1.1//EN" "http://www.w3.org/Graphics/SVG/1.1/DTD/svg11.dtd">
<!-- Creator: CorelDRAW 2018 (64-Bit) -->
<svg xmlns="http://www.w3.org/2000/svg" xml:space="preserve" width="0.593335in" height="0.593331in" version="1.1" style="shape-rendering:geometricPrecision; text-rendering:geometricPrecision; image-rendering:optimizeQuality; fill-rule:evenodd; clip-rule:evenodd"
viewBox="0 0 3.87 3.87"
 xmlns:xlink="http://www.w3.org/1999/xlink">
 <defs>
  <style type="text/css">
   <![CDATA[
    .fil0 {fill:#6F706F;fill-rule:nonzero}
   ]]>
  </style>
 </defs>
 <g id="Layer_x0020_1">
  <metadata id="CorelCorpID_0Corel-Layer"/>
  <path class="fil0" d="M1.93 2.85c0.04,0 0.07,-0.03 0.07,-0.07l0 -0.18 0.02 -0c0.21,-0.05 0.35,-0.26 0.3,-0.47 -0.04,-0.18 -0.2,-0.31 -0.39,-0.31 -0.07,0 -0.14,-0.03 -0.19,-0.08 -0.05,-0.05 -0.08,-0.12 -0.08,-0.19 0,-0.15 0.12,-0.26 0.26,-0.26 0.15,0 0.26,0.12 0.26,0.26 0,0.04 0.03,0.07 0.07,0.07 0.04,0 0.07,-0.03 0.07,-0.07 -0,-0.19 -0.13,-0.35 -0.31,-0.39l-0.02 -0 0 -0.13c0,-0.04 -0.03,-0.07 -0.07,-0.07 -0.04,0 -0.07,0.03 -0.07,0.07l0 0.13 -0.02 0c-0.1,0.02 -0.19,0.08 -0.25,0.17 -0.06,0.09 -0.08,0.19 -0.06,0.3 0.04,0.18 0.2,0.31 0.39,0.31 0.15,0 0.26,0.12 0.26,0.26 0,0.15 -0.12,0.26 -0.26,0.26 -0.15,0 -0.26,-0.12 -0.26,-0.26 0,-0.04 -0.03,-0.07 -0.07,-0.07 -0.04,0 -0.07,0.03 -0.07,0.07 0,0.18 0.13,0.35 0.31,0.39l0.02 0 0 0.18c0,0.04 0.03,0.07 0.07,0.07z"/>
  <path class="fil0" d="M1.93 3.73c-0.48,0 -0.93,-0.19 -1.27,-0.53 -0.34,-0.34 -0.53,-0.79 -0.53,-1.27 0,-0.99 0.81,-1.8 1.8,-1.8 0.99,0 1.8,0.81 1.8,1.8 0,0.99 -0.81,1.8 -1.8,1.8zm1.37 -3.17c-0.36,-0.36 -0.85,-0.57 -1.36,-0.57l-0.01 0c-1.07,0 -1.93,0.87 -1.93,1.93 0,0.52 0.2,1 0.57,1.37 0.37,0.37 0.85,0.57 1.37,0.57l0 0c0.51,0 1,-0.2 1.36,-0.56 0.37,-0.36 0.57,-0.85 0.57,-1.36 0,-0.52 -0.2,-1 -0.56,-1.37l-0.01 -0.01z"/>
  <path class="fil0" d="M1.93 3.28c-0.36,0 -0.7,-0.14 -0.95,-0.39 -0.25,-0.25 -0.39,-0.59 -0.39,-0.95 0,-0.74 0.6,-1.34 1.34,-1.34 0.74,0 1.34,0.6 1.34,1.34 0,0.74 -0.6,1.34 -1.34,1.34zm0 -2.82c-0.81,0 -1.47,0.66 -1.47,1.47 0,0.81 0.66,1.47 1.47,1.47 0.81,0 1.47,-0.66 1.47,-1.47 0,-0.81 -0.66,-1.47 -1.47,-1.47z"/>
 </g>
</svg>
