<?xml version="1.0" encoding="UTF-8"?>
<!DOCTYPE svg PUBLIC "-//W3C//DTD SVG 1.1//EN" "http://www.w3.org/Graphics/SVG/1.1/DTD/svg11.dtd">
<!-- Creator: CorelDRAW 2019 (64-Bit) -->
<svg xmlns="http://www.w3.org/2000/svg" xml:space="preserve" width="1.06224in" height="2.54728in" version="1.1" style="shape-rendering:geometricPrecision; text-rendering:geometricPrecision; image-rendering:optimizeQuality; fill-rule:evenodd; clip-rule:evenodd"
viewBox="0 0 139.29 334.03"
 xmlns:xlink="http://www.w3.org/1999/xlink"
 xmlns:xodm="http://www.corel.com/coreldraw/odm/2003">
 <defs>
  <style type="text/css">
   <![CDATA[
    .fil0 {fill:#969494;fill-rule:nonzero}
   ]]>
  </style>
 </defs>
 <g id="Layer_x0020_1">
  <metadata id="CorelCorpID_0Corel-Layer"/>
  <path class="fil0" d="M136.83 301.63c0,16.51 -13.43,29.93 -29.93,29.93l-74.5 0c-16.51,0 -29.93,-13.43 -29.93,-29.93l0 -269.23c0,-16.51 13.43,-29.93 29.93,-29.93l74.5 0c16.51,0 29.93,13.43 29.93,29.93l0 269.23zm-90.21 8.66c0,3.59 -2.92,6.51 -6.51,6.51l-22.68 0c-3.59,0 -6.51,-2.92 -6.51,-6.51l0 -2.4c0,-3.59 2.92,-6.52 6.51,-6.52l22.68 0c3.59,0 6.51,2.92 6.51,6.52l0 2.4zm-6.51 -9.9l-22.68 0c-4.13,0 -7.5,3.36 -7.5,7.5l0 2.4c0,4.14 3.37,7.5 7.5,7.5l22.68 0c4.14,0 7.5,-3.36 7.5,-7.5l0 -2.4c0,-4.14 -3.36,-7.5 -7.5,-7.5zm6.51 -9.37c0,3.59 -2.92,6.51 -6.51,6.51l-22.68 0c-3.59,0 -6.51,-2.92 -6.51,-6.51l0 -2.4c0,-3.59 2.92,-6.51 6.51,-6.51l22.68 0c3.59,0 6.51,2.92 6.51,6.51l0 2.4zm-6.51 -9.9l-22.68 0c-4.13,0 -7.5,3.36 -7.5,7.5l0 2.4c0,4.14 3.37,7.5 7.5,7.5l22.68 0c4.14,0 7.5,-3.36 7.5,-7.5l0 -2.4c0,-4.13 -3.36,-7.5 -7.5,-7.5zm6.51 -9.37c0,3.59 -2.92,6.51 -6.51,6.51l-22.68 0c-3.59,0 -6.51,-2.92 -6.51,-6.51l0 -2.4c0,-3.59 2.92,-6.51 6.51,-6.51l22.68 0c3.59,0 6.51,2.92 6.51,6.51l0 2.4zm-6.51 -9.9l-22.68 0c-4.13,0 -7.5,3.36 -7.5,7.5l0 2.4c0,4.14 3.37,7.5 7.5,7.5l22.68 0c4.14,0 7.5,-3.36 7.5,-7.5l0 -2.4c0,-4.13 -3.36,-7.5 -7.5,-7.5zm6.51 -9.37c0,3.59 -2.92,6.51 -6.51,6.51l-22.68 0c-3.59,0 -6.51,-2.92 -6.51,-6.51l0 -2.4c0,-3.59 2.92,-6.52 6.51,-6.52l22.68 0c3.59,0 6.51,2.92 6.51,6.52l0 2.4zm-6.51 -9.9l-22.68 0c-4.13,0 -7.5,3.36 -7.5,7.5l0 2.4c0,4.14 3.37,7.5 7.5,7.5l22.68 0c4.14,0 7.5,-3.36 7.5,-7.5l0 -2.4c0,-4.14 -3.36,-7.5 -7.5,-7.5zm-29.2 -13.43c0,-3.59 2.92,-6.51 6.51,-6.51l16.6 0c3.59,0 6.51,2.92 6.51,6.51l0 2.4c0,3.59 -2.92,6.51 -6.51,6.51l-16.6 0c-3.59,0 -6.51,-2.92 -6.51,-6.51l0 -2.4zm-0.99 2.4c0,4.13 3.36,7.5 7.5,7.5l16.6 0c4.14,0 7.5,-3.36 7.5,-7.5l0 -2.4c0,-4.14 -3.36,-7.5 -7.5,-7.5l-16.6 0c-4.14,0 -7.5,3.36 -7.5,7.5l0 2.4zm0.99 -31.12c0,-3.59 2.92,-6.51 6.51,-6.51l16.6 0c3.59,0 6.51,2.92 6.51,6.51l0 2.4c0,3.59 -2.92,6.52 -6.51,6.52l-16.6 0c-3.59,0 -6.51,-2.92 -6.51,-6.52l0 -2.4zm6.51 9.9l16.6 0c4.14,0 7.5,-3.36 7.5,-7.5l0 -2.4c0,-4.14 -3.36,-7.5 -7.5,-7.5l-16.6 0c-4.14,0 -7.5,3.36 -7.5,7.5l0 2.4c0,4.14 3.36,7.5 7.5,7.5zm70.08 99.96c0,3.59 -2.92,6.51 -6.51,6.51l-22.68 0c-3.59,0 -6.51,-2.92 -6.51,-6.51l0 -2.4c0,-3.59 2.92,-6.52 6.51,-6.52l22.68 0c3.59,0 6.51,2.92 6.51,6.52l0 2.4zm-6.51 -9.9l-22.68 0c-4.13,0 -7.5,3.36 -7.5,7.5l0 2.4c0,4.14 3.37,7.5 7.5,7.5l22.68 0c4.13,0 7.5,-3.36 7.5,-7.5l0 -2.4c0,-4.14 -3.37,-7.5 -7.5,-7.5zm6.51 -9.37c0,3.59 -2.92,6.51 -6.51,6.51l-22.68 0c-3.59,0 -6.51,-2.92 -6.51,-6.51l0 -2.4c0,-3.59 2.92,-6.51 6.51,-6.51l22.68 0c3.59,0 6.51,2.92 6.51,6.51l0 2.4zm-6.51 -9.9l-22.68 0c-4.13,0 -7.5,3.36 -7.5,7.5l0 2.4c0,4.14 3.37,7.5 7.5,7.5l22.68 0c4.13,0 7.5,-3.36 7.5,-7.5l0 -2.4c0,-4.13 -3.37,-7.5 -7.5,-7.5zm6.51 -9.37c0,3.59 -2.92,6.51 -6.51,6.51l-22.68 0c-3.59,0 -6.51,-2.92 -6.51,-6.51l0 -2.4c0,-3.59 2.92,-6.51 6.51,-6.51l22.68 0c3.59,0 6.51,2.92 6.51,6.51l0 2.4zm-6.51 -9.9l-22.68 0c-4.13,0 -7.5,3.36 -7.5,7.5l0 2.4c0,4.14 3.37,7.5 7.5,7.5l22.68 0c4.13,0 7.5,-3.36 7.5,-7.5l0 -2.4c0,-4.13 -3.37,-7.5 -7.5,-7.5zm6.51 -9.37c0,3.59 -2.92,6.51 -6.51,6.51l-22.68 0c-3.59,0 -6.51,-2.92 -6.51,-6.51l0 -2.4c0,-3.59 2.92,-6.52 6.51,-6.52l22.68 0c3.59,0 6.51,2.92 6.51,6.52l0 2.4zm-6.51 -9.9l-22.68 0c-4.13,0 -7.5,3.36 -7.5,7.5l0 2.4c0,4.14 3.37,7.5 7.5,7.5l22.68 0c4.13,0 7.5,-3.36 7.5,-7.5l0 -2.4c0,-4.14 -3.37,-7.5 -7.5,-7.5zm47.4 67.71c0,3.59 -2.92,6.51 -6.51,6.51l-22.68 0c-3.59,0 -6.51,-2.92 -6.51,-6.51l0 -2.4c0,-3.59 2.92,-6.52 6.51,-6.52l22.68 0c3.59,0 6.51,2.92 6.51,6.52l0 2.4zm-6.51 -9.9l-22.68 0c-4.13,0 -7.5,3.36 -7.5,7.5l0 2.4c0,4.14 3.37,7.5 7.5,7.5l22.68 0c4.14,0 7.5,-3.36 7.5,-7.5l0 -2.4c0,-4.14 -3.36,-7.5 -7.5,-7.5zm6.51 -9.37c0,3.59 -2.92,6.51 -6.51,6.51l-22.68 0c-3.59,0 -6.51,-2.92 -6.51,-6.51l0 -2.4c0,-3.59 2.92,-6.51 6.51,-6.51l22.68 0c3.59,0 6.51,2.92 6.51,6.51l0 2.4zm-6.51 -9.9l-22.68 0c-4.13,0 -7.5,3.36 -7.5,7.5l0 2.4c0,4.14 3.37,7.5 7.5,7.5l22.68 0c4.14,0 7.5,-3.36 7.5,-7.5l0 -2.4c0,-4.13 -3.36,-7.5 -7.5,-7.5zm6.51 -9.37c0,3.59 -2.92,6.51 -6.51,6.51l-22.68 0c-3.59,0 -6.51,-2.92 -6.51,-6.51l0 -2.4c0,-3.59 2.92,-6.51 6.51,-6.51l22.68 0c3.59,0 6.51,2.92 6.51,6.51l0 2.4zm-6.51 -9.9l-22.68 0c-4.13,0 -7.5,3.36 -7.5,7.5l0 2.4c0,4.14 3.37,7.5 7.5,7.5l22.68 0c4.14,0 7.5,-3.36 7.5,-7.5l0 -2.4c0,-4.13 -3.36,-7.5 -7.5,-7.5zm6.51 -9.37c0,3.59 -2.92,6.51 -6.51,6.51l-22.68 0c-3.59,0 -6.51,-2.92 -6.51,-6.51l0 -2.4c0,-3.59 2.92,-6.52 6.51,-6.52l22.68 0c3.59,0 6.51,2.92 6.51,6.52l0 2.4zm-6.51 -9.9l-22.68 0c-4.13,0 -7.5,3.36 -7.5,7.5l0 2.4c0,4.14 3.37,7.5 7.5,7.5l22.68 0c4.14,0 7.5,-3.36 7.5,-7.5l0 -2.4c0,-4.14 -3.36,-7.5 -7.5,-7.5zm6.51 -11.03c0,3.59 -2.92,6.51 -6.51,6.51l-16.6 0c-3.59,0 -6.51,-2.92 -6.51,-6.51l0 -2.4c0,-3.59 2.92,-6.51 6.51,-6.51l16.6 0c3.59,0 6.51,2.92 6.51,6.51l0 2.4zm-6.51 -9.9l-16.6 0c-4.14,0 -7.5,3.37 -7.5,7.5l0 2.4c0,4.14 3.36,7.5 7.5,7.5l16.6 0c4.14,0 7.5,-3.36 7.5,-7.5l0 -2.4c0,-4.13 -3.36,-7.5 -7.5,-7.5zm6.51 -18.82c0,3.59 -2.92,6.51 -6.51,6.51l-16.6 0c-3.59,0 -6.51,-2.92 -6.51,-6.51l0 -2.4c0,-3.59 2.92,-6.52 6.51,-6.52l16.6 0c3.59,0 6.51,2.92 6.51,6.52l0 2.4zm-6.51 -9.9l-16.6 0c-4.14,0 -7.5,3.36 -7.5,7.5l0 2.4c0,4.14 3.36,7.5 7.5,7.5l16.6 0c4.14,0 7.5,-3.36 7.5,-7.5l0 -2.4c0,-4.14 -3.36,-7.5 -7.5,-7.5zm-35.31 26.1c0,4.64 -3.78,8.42 -8.42,8.42l-16.99 0c-4.64,0 -8.42,-3.78 -8.42,-8.42l0 -9.16c0,-4.64 3.78,-8.42 8.42,-8.42l16.99 0c4.64,0 8.42,3.78 8.42,8.42l0 9.16zm-8.42 -19.06l-16.99 0c-5.46,0 -9.9,4.44 -9.9,9.9l0 9.16c0,5.46 4.44,9.9 9.9,9.9l16.99 0c5.46,0 9.9,-4.44 9.9,-9.9l0 -9.16c0,-5.46 -4.44,-9.9 -9.9,-9.9zm13.55 20.93c0,6.44 -5.24,11.68 -11.68,11.68l-20.74 0c-6.44,0 -11.68,-5.24 -11.68,-11.68l0 -12.91c0,-6.44 5.24,-11.68 11.68,-11.68l20.74 0c6.44,0 11.68,5.24 11.68,11.68l0 12.91zm2.46 -12.91c0,-7.8 -6.34,-14.14 -14.14,-14.14l-20.74 0c-7.8,0 -14.14,6.34 -14.14,14.14l0 12.91c0,7.8 6.34,14.14 14.14,14.14l20.74 0c7.8,0 14.14,-6.34 14.14,-14.14l0 -12.91zm-68.45 -161.55l87.89 0 0 107.15 -87.89 0 0 -107.15zm-1.28 108.43l90.45 0 0 -109.71 -90.45 0 0 109.71zm25.52 -136.06l39.41 0c1.06,0 1.93,0.87 1.93,1.93 0,1.06 -0.86,1.93 -1.93,1.93l-39.41 0c-1.06,0 -1.93,-0.86 -1.93,-1.93 0,-1.06 0.86,-1.93 1.93,-1.93zm0 4.84l39.41 0c1.61,0 2.91,-1.31 2.91,-2.91 0,-1.6 -1.31,-2.91 -2.91,-2.91l-39.41 0c-1.61,0 -2.91,1.31 -2.91,2.91 0,1.61 1.31,2.91 2.91,2.91zm81.42 138.05c0,13.21 -10.74,23.95 -23.95,23.95l-75.52 0c-13.2,0 -23.95,-10.74 -23.95,-23.95l0 -127.53c0,-13.21 10.74,-23.95 23.95,-23.95l75.52 0c13.21,0 23.95,10.74 23.95,23.95l0 127.53zm-23.95 -153.45l-75.52 0c-14.29,0 -25.92,11.63 -25.92,25.92l0 127.53c0,14.29 11.63,25.92 25.92,25.92l75.52 0c14.29,0 25.92,-11.63 25.92,-25.92l0 -127.53c0,-14.29 -11.63,-25.92 -25.92,-25.92zm-0.51 -8.27l-74.5 0c-17.86,0 -32.4,14.53 -32.4,32.4l0 269.23c0,17.86 14.53,32.4 32.4,32.4l74.5 0c17.86,0 32.4,-14.53 32.4,-32.4l0 -269.23c0,-17.86 -14.53,-32.4 -32.4,-32.4z"/>
 </g>
</svg>
