<?xml version="1.0" encoding="UTF-8"?>
<!DOCTYPE svg PUBLIC "-//W3C//DTD SVG 1.1//EN" "http://www.w3.org/Graphics/SVG/1.1/DTD/svg11.dtd">
<!-- Creator: CorelDRAW 2019 (64-Bit) -->
<svg xmlns="http://www.w3.org/2000/svg" xml:space="preserve" width="1.05656in" height="2.54728in" version="1.1" style="shape-rendering:geometricPrecision; text-rendering:geometricPrecision; image-rendering:optimizeQuality; fill-rule:evenodd; clip-rule:evenodd"
viewBox="0 0 231.17 557.34"
 xmlns:xlink="http://www.w3.org/1999/xlink"
 xmlns:xodm="http://www.corel.com/coreldraw/odm/2003">
 <defs>
  <style type="text/css">
   <![CDATA[
    .fil0 {fill:#969494;fill-rule:nonzero}
   ]]>
  </style>
 </defs>
 <g id="Layer_x0020_1">
  <metadata id="CorelCorpID_0Corel-Layer"/>
  <path class="fil0" d="M227.07 482.61c0,61.45 -51.51,70.62 -82.21,70.62l-58.53 0c-30.7,0 -82.21,-9.17 -82.21,-70.62l0 -425.87c0,-45.79 52.43,-52.63 83.69,-52.63l55.57 0c31.25,0 83.69,6.84 83.69,52.63l0 425.87zm-150.38 40.45c0,5.74 -4.67,10.42 -10.42,10.42 -14.19,0 -41.03,-4.56 -41.03,-21.79 0,-4.03 3.01,-5.9 9.47,-5.9l31.56 0c5.74,0 10.42,4.67 10.42,10.42l0 6.86zm-10.42 -18.92l-31.56 0c-7.37,0 -11.11,2.54 -11.11,7.55 0,18.5 26.82,23.44 42.67,23.44 6.65,0 12.06,-5.41 12.06,-12.06l0 -6.86c0,-6.65 -5.41,-12.06 -12.06,-12.06zm98.99 29.34c-5.74,0 -10.42,-4.67 -10.42,-10.42l0 -6.86c0,-5.74 4.67,-10.42 10.42,-10.42l31.56 0c6.46,0 9.47,1.88 9.47,5.9 0,17.24 -26.84,21.79 -41.03,21.79zm31.56 -29.34l-31.56 0c-6.65,0 -12.06,5.41 -12.06,12.06l0 6.86c0,6.65 5.41,12.06 12.06,12.06 15.85,0 42.67,-4.94 42.67,-23.44 0,-5 -3.74,-7.55 -11.11,-7.55zm-51.66 18.92c0,5.74 -4.67,10.42 -10.42,10.42l-38.29 0c-5.74,0 -10.42,-4.67 -10.42,-10.42l0 -6.86c0,-5.75 4.67,-10.42 10.42,-10.42l38.29 0c5.74,0 10.42,4.67 10.42,10.42l0 6.86zm-10.42 -18.92l-38.29 0c-6.65,0 -12.06,5.41 -12.06,12.06l0 6.86c0,6.65 5.41,12.06 12.06,12.06l38.29 0c6.65,0 12.06,-5.41 12.06,-12.06l0 -6.86c0,-6.65 -5.41,-12.06 -12.06,-12.06zm-117.51 -14.91l0 -6.86c0,-5.75 4.67,-10.42 10.42,-10.42l38.29 0c5.74,0 10.42,4.67 10.42,10.42l0 6.86c0,5.74 -4.68,10.42 -10.42,10.42l-38.29 0c-5.74,0 -10.42,-4.67 -10.42,-10.42zm48.71 12.06c6.65,0 12.06,-5.41 12.06,-12.06l0 -6.86c0,-6.65 -5.41,-12.06 -12.06,-12.06l-38.29 0c-6.65,0 -12.06,5.41 -12.06,12.06l0 6.86c0,6.65 5.41,12.06 12.06,12.06l38.29 0zm148.03 -12.06c0,5.74 -4.67,10.42 -10.42,10.42l-38.29 0c-5.74,0 -10.42,-4.67 -10.42,-10.42l0 -6.86c0,-5.75 4.68,-10.42 10.42,-10.42l38.29 0c5.74,0 10.42,4.67 10.42,10.42l0 6.86zm-10.42 -18.92l-38.29 0c-6.65,0 -12.06,5.41 -12.06,12.06l0 6.86c0,6.65 5.41,12.06 12.06,12.06l38.29 0c6.65,0 12.06,-5.41 12.06,-12.06l0 -6.86c0,-6.65 -5.41,-12.06 -12.06,-12.06zm-58.39 18.92c0,5.74 -4.67,10.42 -10.42,10.42l-38.29 0c-5.74,0 -10.42,-4.67 -10.42,-10.42l0 -6.86c0,-5.75 4.67,-10.42 10.42,-10.42l38.29 0c5.74,0 10.42,4.67 10.42,10.42l0 6.86zm-10.42 -18.92l-38.29 0c-6.65,0 -12.06,5.41 -12.06,12.06l0 6.86c0,6.65 5.41,12.06 12.06,12.06l38.29 0c6.65,0 12.06,-5.41 12.06,-12.06l0 -6.86c0,-6.65 -5.41,-12.06 -12.06,-12.06zm-117.51 -21.77c0,-5.74 4.67,-10.42 10.42,-10.42l38.29 0c5.74,0 10.42,4.67 10.42,10.42l0 6.86c0,5.74 -4.68,10.42 -10.42,10.42l-38.29 0c-5.74,0 -10.42,-4.67 -10.42,-10.42l0 -6.86zm-1.64 6.86c0,6.65 5.41,12.06 12.06,12.06l38.29 0c6.65,0 12.06,-5.41 12.06,-12.06l0 -6.86c0,-6.65 -5.41,-12.06 -12.06,-12.06l-38.29 0c-6.65,0 -12.06,5.41 -12.06,12.06l0 6.86zm198.38 0c0,5.74 -4.67,10.42 -10.42,10.42l-38.29 0c-5.74,0 -10.42,-4.67 -10.42,-10.42l0 -6.86c0,-5.74 4.68,-10.42 10.42,-10.42l38.29 0c5.74,0 10.42,4.67 10.42,10.42l0 6.86zm-10.42 -18.92l-38.29 0c-6.65,0 -12.06,5.41 -12.06,12.06l0 6.86c0,6.65 5.41,12.06 12.06,12.06l38.29 0c6.65,0 12.06,-5.41 12.06,-12.06l0 -6.86c0,-6.65 -5.41,-12.06 -12.06,-12.06zm-58.39 18.92c0,5.74 -4.67,10.42 -10.42,10.42l-38.29 0c-5.74,0 -10.42,-4.67 -10.42,-10.42l0 -6.86c0,-5.74 4.67,-10.42 10.42,-10.42l38.29 0c5.74,0 10.42,4.67 10.42,10.42l0 6.86zm-10.42 -18.92l-38.29 0c-6.65,0 -12.06,5.41 -12.06,12.06l0 6.86c0,6.65 5.41,12.06 12.06,12.06l38.29 0c6.65,0 12.06,-5.41 12.06,-12.06l0 -6.86c0,-6.65 -5.41,-12.06 -12.06,-12.06zm-107.1 -32.19l38.29 0c5.74,0 10.42,4.67 10.42,10.42l0 6.86c0,5.75 -4.67,10.42 -10.42,10.42l-38.29 0c-5.74,0 -10.42,-4.67 -10.42,-10.42l0 -6.86c0,-5.74 4.67,-10.42 10.42,-10.42zm-12.06 10.42l0 6.86c0,6.65 5.41,12.06 12.06,12.06l38.29 0c6.65,0 12.06,-5.41 12.06,-12.06l0 -6.86c0,-6.65 -5.41,-12.06 -12.06,-12.06l-38.29 0c-6.65,0 -12.06,5.41 -12.06,12.06zm198.38 6.86c0,5.74 -4.67,10.42 -10.42,10.42l-38.29 0c-5.74,0 -10.42,-4.67 -10.42,-10.42l0 -6.86c0,-5.74 4.68,-10.42 10.42,-10.42l38.29 0c5.74,0 10.42,4.67 10.42,10.42l0 6.86zm-10.42 -18.92l-38.29 0c-6.65,0 -12.06,5.41 -12.06,12.06l0 6.86c0,6.65 5.41,12.06 12.06,12.06l38.29 0c6.65,0 12.06,-5.41 12.06,-12.06l0 -6.86c0,-6.65 -5.41,-12.06 -12.06,-12.06zm-58.39 18.92c0,5.74 -4.67,10.42 -10.42,10.42l-38.29 0c-5.74,0 -10.42,-4.67 -10.42,-10.42l0 -6.86c0,-5.74 4.67,-10.42 10.42,-10.42l38.29 0c5.74,0 10.42,4.67 10.42,10.42l0 6.86zm-10.42 -18.92l-38.29 0c-6.65,0 -12.06,5.41 -12.06,12.06l0 6.86c0,6.65 5.41,12.06 12.06,12.06l38.29 0c6.65,0 12.06,-5.41 12.06,-12.06l0 -6.86c0,-6.65 -5.41,-12.06 -12.06,-12.06zm27.7 -22.31l0 -23.31 47.67 0 0 23.31c0,7.41 -6.03,13.44 -13.44,13.44l-20.78 0c-7.41,0 -13.44,-6.03 -13.44,-13.44zm13.44 -61.71l20.78 0c7.41,0 13.44,6.03 13.44,13.44l0 23.31 -47.67 0 0 -23.31c0,-7.41 6.03,-13.44 13.44,-13.44zm20.78 76.8c8.32,0 15.09,-6.77 15.09,-15.08l0 -48.27c0,-8.32 -6.77,-15.09 -15.09,-15.09l-20.78 0c-8.32,0 -15.09,6.77 -15.09,15.09l0 48.27c0,8.31 6.77,15.08 15.09,15.08l20.78 0zm-175.58 -15.08l0 -23.31 47.66 0 0 23.31c0,7.41 -6.03,13.44 -13.44,13.44l-20.78 0c-7.41,0 -13.44,-6.03 -13.44,-13.44zm13.44 -61.71l20.78 0c7.41,0 13.44,6.03 13.44,13.44l0 23.31 -47.66 0 0 -23.31c0,-7.41 6.03,-13.44 13.44,-13.44zm20.78 76.8c8.32,0 15.08,-6.77 15.08,-15.08l0 -48.27c0,-8.32 -6.77,-15.09 -15.08,-15.09l-20.78 0c-8.32,0 -15.09,6.77 -15.09,15.09l0 48.27c0,8.31 6.77,15.08 15.09,15.08l20.78 0zm84.03 -30.56c0,9.87 -8.03,17.91 -17.91,17.91l-11.68 0c-9.88,0 -17.91,-8.03 -17.91,-17.91l0 -17.31c0,-9.88 8.03,-17.91 17.91,-17.91l11.68 0c9.87,0 17.91,8.03 17.91,17.91l0 17.31zm-17.91 -37.69l-11.68 0c-11.23,0 -20.38,9.14 -20.38,20.38l0 17.31c0,11.23 9.14,20.37 20.38,20.37l11.68 0c11.23,0 20.37,-9.14 20.37,-20.37l0 -17.31c0,-11.23 -9.14,-20.38 -20.37,-20.38zm25.14 39.28c0,12.83 -10.44,23.26 -23.26,23.26l-15.44 0c-12.82,0 -23.26,-10.43 -23.26,-23.26l0 -20.5c0,-12.83 10.44,-23.26 23.26,-23.26l15.44 0c12.82,0 23.26,10.43 23.26,23.26l0 20.5zm-23.26 -47.87l-15.44 0c-15.09,0 -27.37,12.28 -27.37,27.37l0 20.5c0,15.09 12.28,27.37 27.37,27.37l15.44 0c15.09,0 27.37,-12.28 27.37,-27.37l0 -20.5c0,-15.09 -12.28,-27.37 -27.37,-27.37zm-77.09 -238.61l138.88 0 0 174.26 -138.88 0 0 -174.26zm-2.14 176.4l143.16 0 0 -178.53 -143.16 0 0 178.53zm172.41 20.62c0,29.5 -42.45,30.99 -50.96,30.99l-99.91 0c-8.51,0 -50.95,-1.49 -50.95,-30.99l0 -211.95c0,-13.09 3.86,-23.58 11.46,-31.17 16.03,-16.02 45.19,-16.56 63.72,-16.56 0.69,0 1.36,0 2.01,0l1.8 0 45.63 -0c18.33,-0.02 49.11,-0.05 65.73,16.56 7.61,7.6 11.46,18.08 11.46,31.17l0 211.95zm-77.2 -262.97l-1.8 0 -45.63 0c-18.91,-0.02 -50.47,-0.06 -68.06,17.52 -8.24,8.24 -12.43,19.51 -12.43,33.5l0 211.95c0,25.27 28.02,34.28 54.24,34.28l99.91 0c26.22,0 54.24,-9 54.24,-34.28l0 -211.95c0,-13.99 -4.18,-25.26 -12.43,-33.5 -17.59,-17.57 -49.19,-17.55 -68.06,-17.52zm-48.12 18.98l48.82 0c1.65,0 3,1.35 3,3 0,1.65 -1.34,3 -3,3l-48.82 0c-1.65,0 -3,-1.35 -3,-3 0,-1.65 1.35,-3 3,-3zm0 7.64l48.82 0c2.56,0 4.64,-2.08 4.64,-4.64 0,-2.56 -2.08,-4.64 -4.64,-4.64l-48.82 0c-2.56,0 -4.64,2.08 -4.64,4.64 0,2.56 2.09,4.64 4.64,4.64zm52.19 -40.64l-55.57 0c-26.4,0 -87.8,5.53 -87.8,56.74l0 425.87c0,27.01 9.6,47.15 28.53,59.86 18.3,12.29 41.53,14.87 57.79,14.87l58.53 0c16.26,0 39.49,-2.58 57.79,-14.87 18.93,-12.71 28.53,-32.85 28.53,-59.86l0 -425.87c0,-51.21 -61.4,-56.74 -87.8,-56.74z"/>
 </g>
</svg>
