<?xml version="1.0" encoding="UTF-8"?>
<!DOCTYPE svg PUBLIC "-//W3C//DTD SVG 1.1//EN" "http://www.w3.org/Graphics/SVG/1.1/DTD/svg11.dtd">
<!-- Creator: CorelDRAW 2018 (64-Bit) -->
<svg xmlns="http://www.w3.org/2000/svg" xml:space="preserve" width="0.206402in" height="0.386984in" version="1.1" style="shape-rendering:geometricPrecision; text-rendering:geometricPrecision; image-rendering:optimizeQuality; fill-rule:evenodd; clip-rule:evenodd"
viewBox="0 0 0.42 0.79"
 xmlns:xlink="http://www.w3.org/1999/xlink">
 <defs>
  <style type="text/css">
   <![CDATA[
    .fil0 {fill:#AAAAAB;fill-rule:nonzero}
   ]]>
  </style>
 </defs>
 <g id="Layer_x0020_1">
  <metadata id="CorelCorpID_0Corel-Layer"/>
  <path class="fil0" d="M0.39 0.74c0,0.01 -0.01,0.02 -0.02,0.02l-0.33 0c-0.01,0 -0.02,-0.01 -0.02,-0.02l0 -0.64c0,-0.01 0.01,-0.02 0.02,-0.02l0.33 0c0.01,0 0.02,0.01 0.02,0.02l0 0.64zm-0.24 -0.72l0.1 0 0 0.03 -0.1 0 0 -0.03zm0.22 0.03l-0.09 0 0 -0.05 -0.16 0 0 0.05 -0.09 0c-0.03,0 -0.05,0.02 -0.05,0.05l0 0.64c0,0.03 0.02,0.05 0.05,0.05l0.33 0c0.03,0 0.05,-0.02 0.05,-0.05l0 -0.64c0,-0.03 -0.02,-0.05 -0.05,-0.05z"/>
  <path class="fil0" d="M0.28 0.41l-0.08 0.16 0 -0.15 -0.06 0 0.09 -0.15 0 0.14 0.04 0zm-0.02 -0.18c0,-0.01 -0,-0.01 -0.01,-0.01l-0.01 -0 -0.01 0.01 -0.14 0.23 0.08 0 0 0.17c-0,0.01 0,0.01 0.01,0.01l0.01 0 0.01 -0.01 0.13 -0.24 -0.06 0 0 -0.16z"/>
 </g>
</svg>
