<?xml version="1.0" encoding="UTF-8"?>
<!DOCTYPE svg PUBLIC "-//W3C//DTD SVG 1.1//EN" "http://www.w3.org/Graphics/SVG/1.1/DTD/svg11.dtd">
<!-- Creator: CorelDRAW 2019 (64-Bit) -->
<svg xmlns="http://www.w3.org/2000/svg" xml:space="preserve" width="2.86025in" height="1.17616in" version="1.1" style="shape-rendering:geometricPrecision; text-rendering:geometricPrecision; image-rendering:optimizeQuality; fill-rule:evenodd; clip-rule:evenodd"
     viewBox="0 0 1582.45 650.72"
     xmlns:xlink="http://www.w3.org/1999/xlink"
     xmlns:xodm="http://www.corel.com/coreldraw/odm/2003">
 <defs>
  <!--<style type="text/css">-->
   <!--<![CDATA[-->
    <!--.fil1 {fill:#ED3237}-->
    <!--.fil2 {fill:#FEFEFE;fill-rule:nonzero}-->
    <!--.fil0 {fill:#ED3237;fill-rule:nonzero}-->
   <!--]]>-->
  <!--</style>-->
 </defs>
 <g id="Layer_x0020_1">
  <metadata id="CorelCorpID_0Corel-Layer"/>
  <path class="fil0" d="M398.19 410.87c-1.87,4.48 -3.97,8.9 -6.29,13.24 -2.3,4.3 -4.78,8.44 -7.44,12.42 -2.66,3.98 -5.52,7.83 -8.6,11.56 -1.85,2.25 -3.77,4.44 -5.75,6.57l0.1 0.1 -4.1 4.08c-3.38,3.36 -6.95,6.57 -10.68,9.62 -3.71,3.03 -7.61,5.91 -11.68,8.63 -4.06,2.71 -8.22,5.22 -12.46,7.5 -4.26,2.3 -8.68,4.42 -13.25,6.36l-0.02 0c-4.2,1.78 -9.32,3.33 -14.98,4.64 -6.15,1.44 -13.08,2.65 -20.2,3.63 -8.05,1.12 -16.31,1.96 -23.92,2.54 -8.61,0.65 -16.48,0.98 -22.41,0.98l-236.53 0 0 -501.2 236.53 0c5.93,0 13.8,0.33 22.41,0.98 7.61,0.58 15.87,1.43 23.92,2.54 7.13,0.99 14.06,2.2 20.2,3.63 5.65,1.32 10.78,2.86 14.98,4.64 4.64,1.97 9.07,4.09 13.27,6.35 4.24,2.28 8.4,4.79 12.46,7.5 4.07,2.72 7.97,5.59 11.67,8.62 3.74,3.05 7.3,6.26 10.69,9.63l4.1 4.08 -0.1 0.1c1.98,2.13 3.89,4.32 5.74,6.57 3.07,3.73 5.94,7.59 8.6,11.56 2.66,3.98 5.14,8.12 7.44,12.42 2.32,4.34 4.42,8.76 6.29,13.25 1.92,4.61 3.6,9.31 5.04,14.09 1.43,4.76 2.62,9.64 3.58,14.63 0.94,4.89 1.66,9.94 2.14,15.14 0.49,5.25 0.74,10.43 0.74,15.51l0 198.72c0,5.08 -0.25,10.25 -0.74,15.51 -0.48,5.2 -1.2,10.25 -2.14,15.14 -0.95,4.96 -2.14,9.82 -3.57,14.57 -1.43,4.76 -3.11,9.45 -5.03,14.06l-0.02 0.08zm-303.99 -209.92l0 208.03c52.35,0 104.73,0.16 157.08,-0l2.87 -0.21c1.12,-0.14 2.11,-0.25 3.22,-0.31 4.54,-0.24 8.85,-0.79 12.92,-1.62 4.01,-0.82 7.84,-1.95 11.48,-3.38 3.45,-1.35 6.72,-2.99 9.79,-4.91 3.06,-1.91 5.94,-4.11 8.61,-6.58 2.49,-2.28 4.69,-4.83 6.59,-7.62 1.88,-2.75 3.45,-5.74 4.71,-8.94 1.32,-3.37 2.32,-7.03 2.99,-10.96 0.67,-3.98 1.01,-8.3 1.01,-12.95l0 -5.76 0.06 0 -0.08 -74.18 -0.04 0c0.02,-29.28 -0.02,-58.56 -0.05,-87.83l0.14 0 0.03 -25.17 -0.06 0 0 -5.76c0,-4.65 -0.34,-8.97 -1.01,-12.95 -0.66,-3.93 -1.66,-7.59 -2.99,-10.96 -1.26,-3.2 -2.83,-6.18 -4.71,-8.94 -1.91,-2.79 -4.1,-5.33 -6.58,-7.63 -2.69,-2.46 -5.56,-4.66 -8.62,-6.57 -3.07,-1.92 -6.34,-3.56 -9.79,-4.91 -3.64,-1.43 -7.47,-2.55 -11.48,-3.38 -4.07,-0.84 -8.38,-1.38 -12.92,-1.62 -1.11,-0.06 -2.11,-0.18 -3.22,-0.31l-2.87 -0.21c-52.35,-0.17 -104.72,-0 -157.08,-0l0 105.64z"/>
  <path class="fil0" d="M840.31 410.87c-1.87,4.48 -3.97,8.9 -6.29,13.24 -2.3,4.3 -4.78,8.44 -7.44,12.42 -2.66,3.98 -5.52,7.83 -8.6,11.56 -1.85,2.25 -3.77,4.44 -5.75,6.57l0.1 0.1 -4.1 4.08c-3.38,3.36 -6.95,6.57 -10.68,9.62 -3.71,3.03 -7.61,5.91 -11.68,8.63 -4.06,2.71 -8.22,5.22 -12.46,7.5 -4.26,2.3 -8.68,4.42 -13.25,6.36l-0.02 0c-4.2,1.78 -9.32,3.33 -14.98,4.64 -6.15,1.44 -13.08,2.65 -20.2,3.63 -8.05,1.12 -16.31,1.96 -23.92,2.54 -8.61,0.65 -16.48,0.98 -22.41,0.98l-39.38 0 -13.37 0 -10.62 0c-5.93,0 -13.8,-0.33 -22.41,-0.98 -7.61,-0.58 -15.87,-1.43 -23.92,-2.54 -7.13,-0.99 -14.06,-2.2 -20.2,-3.63 -5.65,-1.32 -10.78,-2.86 -14.98,-4.64l-0.02 0c-4.57,-1.94 -8.99,-4.06 -13.25,-6.36 -4.24,-2.28 -8.39,-4.78 -12.46,-7.5 -4.07,-2.72 -7.97,-5.6 -11.68,-8.63 -3.74,-3.05 -7.3,-6.26 -10.68,-9.62l-4.1 -4.08 0.1 -0.1c-1.98,-2.13 -3.89,-4.32 -5.75,-6.57 -3.07,-3.73 -5.94,-7.59 -8.6,-11.56 -2.66,-3.98 -5.14,-8.12 -7.44,-12.42 -2.32,-4.34 -4.42,-8.76 -6.29,-13.24l-0.02 -0.09c-1.92,-4.61 -3.6,-9.3 -5.03,-14.06 -1.43,-4.75 -2.62,-9.61 -3.57,-14.57 -0.94,-4.89 -1.66,-9.94 -2.14,-15.14 -0.49,-5.25 -0.74,-10.43 -0.74,-15.51l0 -97.17 0 -54.91 0 -48.16c0,-5.08 0.25,-10.26 0.74,-15.51 0.48,-5.2 1.2,-10.25 2.14,-15.14 0.96,-4.99 2.15,-9.87 3.58,-14.63 1.43,-4.78 3.12,-9.48 5.04,-14.09 1.87,-4.48 3.97,-8.9 6.29,-13.25 2.3,-4.3 4.78,-8.44 7.44,-12.42 2.66,-3.98 5.52,-7.83 8.6,-11.56 1.85,-2.25 3.77,-4.44 5.74,-6.57l-0.1 -0.1 4.1 -4.08c3.38,-3.37 6.95,-6.58 10.69,-9.63 3.71,-3.03 7.61,-5.9 11.67,-8.62 4.06,-2.71 8.22,-5.22 12.46,-7.5 4.21,-2.26 8.63,-4.39 13.27,-6.35 4.2,-1.78 9.32,-3.33 14.98,-4.64 6.15,-1.44 13.08,-2.65 20.2,-3.63 8.05,-1.12 16.31,-1.96 23.92,-2.54 8.61,-0.65 16.48,-0.98 22.41,-0.98l10.62 0 13.37 0 39.38 0c5.93,0 13.8,0.33 22.41,0.98 7.61,0.58 15.87,1.43 23.92,2.54 7.13,0.99 14.06,2.2 20.2,3.63 5.65,1.32 10.78,2.86 14.98,4.64 4.64,1.97 9.07,4.09 13.27,6.35 4.24,2.28 8.4,4.79 12.46,7.5 4.07,2.72 7.97,5.59 11.67,8.62 3.74,3.05 7.3,6.26 10.69,9.63l4.1 4.08 -0.1 0.1c1.98,2.13 3.89,4.32 5.75,6.57 3.07,3.73 5.94,7.59 8.6,11.56 2.66,3.98 5.14,8.12 7.44,12.42 2.32,4.34 4.42,8.76 6.29,13.25 1.92,4.61 3.6,9.31 5.04,14.09 1.43,4.76 2.62,9.64 3.58,14.63 0.94,4.89 1.66,9.94 2.14,15.14 0.49,5.25 0.74,10.43 0.74,15.51l0 48.16 0 54.91 0 97.17c0,5.08 -0.25,10.25 -0.74,15.51 -0.48,5.2 -1.2,10.25 -2.14,15.14 -0.95,4.96 -2.14,9.82 -3.57,14.57 -1.43,4.76 -3.11,9.45 -5.03,14.06l-0.02 0.09zm-214.42 -1.89l13.37 0 52.76 0 1.37 -0c0.24,-0.01 0.67,-0.03 1.29,-0.08l0.02 0c0.57,-0.04 1.09,-0.08 1.56,-0.13l2.01 -0.24 0.41 -0.02 0.81 -0.04c4.54,-0.24 8.85,-0.79 12.92,-1.62 4.01,-0.82 7.84,-1.95 11.48,-3.38 3.45,-1.35 6.72,-2.99 9.79,-4.91 3.06,-1.91 5.94,-4.11 8.61,-6.58l0.01 0.01c2.48,-2.29 4.68,-4.84 6.58,-7.63 1.88,-2.75 3.45,-5.74 4.71,-8.94 1.32,-3.37 2.32,-7.03 2.99,-10.96 0.67,-3.98 1.01,-8.3 1.01,-12.95l0 -5.76 0.06 0 -0.08 -72.72 -0.04 0 0.01 -5.76 0.01 -11.46 0 -2.63 -0.05 -52.27 -0.01 -11.46 -0.01 -5.76 0.15 0 0.03 -25.17 -0.06 0 0 -5.76c0,-4.65 -0.34,-8.97 -1.01,-12.95 -0.66,-3.93 -1.66,-7.59 -2.99,-10.96 -1.26,-3.2 -2.83,-6.18 -4.71,-8.94 -1.91,-2.79 -4.1,-5.33 -6.58,-7.63l-0.01 0.01c-2.67,-2.47 -5.55,-4.67 -8.61,-6.58 -3.07,-1.92 -6.34,-3.56 -9.79,-4.91 -3.64,-1.43 -7.47,-2.55 -11.48,-3.38 -4.07,-0.84 -8.38,-1.38 -12.92,-1.62l-0.81 -0.04 -0.41 -0.02 -2.01 -0.24c-0.46,-0.05 -0.98,-0.09 -1.56,-0.13l-0.02 0c-0.62,-0.04 -1.06,-0.07 -1.29,-0.08l-1.37 -0 -52.76 0 -13.37 0 -23.99 0 -1.37 0c-0.24,0.01 -0.67,0.03 -1.29,0.08l-0.02 0c-0.58,0.04 -1.09,0.08 -1.56,0.13l-2.01 0.24 -0.41 0.02 -0.81 0.04c-4.54,0.24 -8.85,0.79 -12.92,1.62 -4.01,0.82 -7.84,1.95 -11.48,3.38 -3.45,1.35 -6.72,2.99 -9.79,4.91 -3.06,1.91 -5.94,4.11 -8.61,6.58l-0.01 -0.01c-2.48,2.29 -4.68,4.84 -6.58,7.63 -1.88,2.75 -3.45,5.74 -4.71,8.94 -1.32,3.37 -2.32,7.03 -2.99,10.96 -0.67,3.98 -1.01,8.3 -1.01,12.95l0 5.76 -0.06 0 0.03 25.17 0.14 0 -0.01 5.76 -0.01 11.46 -0.05 52.27 0 2.63 0.01 11.46 0 5.76 -0.04 0 -0.08 72.72 0.06 0 0 5.76c0,4.65 0.34,8.97 1.01,12.95 0.66,3.93 1.66,7.59 2.99,10.96 1.26,3.2 2.83,6.18 4.71,8.94 1.91,2.79 4.1,5.33 6.58,7.63l0.01 -0.01c2.67,2.47 5.55,4.67 8.61,6.58 3.07,1.92 6.34,3.56 9.79,4.91 3.64,1.43 7.47,2.55 11.48,3.38 4.07,0.84 8.38,1.38 12.92,1.62l0.81 0.04 0.41 0.02 2.01 0.24c0.46,0.05 0.98,0.09 1.56,0.13l0.02 0c0.62,0.04 1.06,0.07 1.29,0.08l1.37 0 23.99 0z"/>
  <polygon class="fil0" points="1102.22,100.55 1173.13,0 1298.51,0.02 1171.16,180.63 "/>
  <polygon class="fil0" points="818.62,502.75 1016.32,222.37 1085.26,302.45 944.03,502.75 "/>
  <polygon class="fil1" points="1488.99,650.72 1522.36,650.72 962.23,0.02 928.86,0.02 "/>
  <polygon class="fil1" points="1549.08,650.72 1582.45,650.72 1022.32,0.02 988.94,0.02 "/>
  <polygon class="fil1" points="1431.13,650.72 1464,650.72 903.87,0.02 871,0.02 "/>
  <polygon class="fil1" points="811.86,0.02 1371.99,650.72 1406.15,650.72 846.01,0.02 "/>
  <path class="fil2" d="M1136.03 574.36l75.19 0 0 35.81c0,1.4 -0.08,3.27 -0.25,5.28 -0.15,1.8 -0.36,3.75 -0.64,5.64 -0.25,1.66 -0.56,3.28 -0.92,4.75 -0.33,1.32 -0.72,2.52 -1.17,3.52l-0.01 0.05c-0.47,1.04 -1.02,2.08 -1.61,3.12 -0.6,1.03 -1.23,2.01 -1.88,2.92 -0.67,0.92 -1.39,1.83 -2.16,2.69 -0.74,0.85 -1.57,1.7 -2.45,2.52 -0.88,0.82 -1.78,1.58 -2.68,2.27 -0.94,0.72 -1.9,1.38 -2.87,1.98 -1,0.62 -2.04,1.2 -3.09,1.72 -1.06,0.52 -2.16,1.01 -3.31,1.45 -1.14,0.44 -2.3,0.83 -3.49,1.16 -1.2,0.34 -2.41,0.61 -3.62,0.83 -1.24,0.22 -2.49,0.39 -3.74,0.5 -1.26,0.11 -2.55,0.16 -3.85,0.16l-59.99 0 0 -21.89c19.99,0 40,0.16 59.99,0.05 1.26,0 2.42,-0.08 3.46,-0.25 1.05,-0.17 2.03,-0.42 2.94,-0.75 0.85,-0.31 1.66,-0.7 2.4,-1.18 0.74,-0.47 1.43,-1.02 2.04,-1.64l0.27 -0.27c0.52,-0.56 1,-1.16 1.43,-1.79 0.49,-0.73 0.91,-1.51 1.27,-2.34 0.35,-0.84 0.64,-1.73 0.85,-2.68 0.2,-0.96 0.35,-1.98 0.41,-3.04 0.6,-5.69 0.14,-12.9 0.14,-18.73l-75.19 0 0 -35.4c0,-1.4 0.08,-3.27 0.25,-5.28 0.15,-1.8 0.36,-3.75 0.64,-5.64 0.24,-1.63 0.55,-3.25 0.92,-4.73 0.34,-1.35 0.73,-2.39 1.19,-3.39 0.5,-1.1 1.04,-2.33 1.61,-3.33 0.57,-0.99 1.2,-1.96 1.88,-2.9 0.64,-0.9 1.36,-1.81 2.16,-2.71 0.76,-0.87 1.58,-1.71 2.44,-2.51 0.87,-0.8 1.77,-1.57 2.69,-2.27 0.91,-0.7 1.88,-1.36 2.87,-1.98 1.01,-0.62 2.05,-1.2 3.11,-1.73 1.05,-0.52 2.15,-1 3.28,-1.44 1.16,-0.45 2.33,-0.83 3.49,-1.16 1.21,-0.33 2.42,-0.61 3.62,-0.82 1.23,-0.22 2.49,-0.39 3.74,-0.5 1.26,-0.11 2.55,-0.16 3.85,-0.16l59.99 0 0 21.69c-19.98,-0.05 -40.01,-0.16 -59.99,-0.05 -1.27,0 -2.43,0.08 -3.48,0.25 -1.03,0.16 -2.01,0.41 -2.92,0.75 -0.86,0.31 -1.66,0.7 -2.4,1.17 -0.74,0.47 -1.42,1.02 -2.04,1.64 -0.64,0.64 -1.21,1.34 -1.71,2.08 -0.5,0.74 -0.93,1.52 -1.27,2.32 -0.35,0.86 -0.64,1.76 -0.84,2.68 -0.21,0.97 -0.35,1.99 -0.41,3.04 -0.6,5.68 -0.14,12.71 -0.14,18.53zm-1092.17 72.52l0 -103.83c0,-0.37 -0.03,-0.64 -0.07,-0.81 -0.14,-0.06 -0.34,-0.12 -0.6,-0.17 -0.49,-0.09 -1.17,-0.13 -2,-0.13l-40.98 0 0 -21.69 112.37 0 0 21.69 -42.24 0c-0.49,0 -0.88,0.04 -1.14,0.11l-0.15 0.03 -0.03 0.14c-0.07,0.27 -0.1,0.64 -0.1,1.11l0 107.38 -25.06 0 0 -3.84zm97.96 -72.53l73.87 0 0 21.93 -73.87 0c0,5.86 -0.47,12.81 0.13,18.53 0.06,1.08 0.2,2.12 0.41,3.09 0.21,0.98 0.49,1.89 0.83,2.72 0.34,0.83 0.76,1.62 1.24,2.36 0.48,0.73 1.05,1.43 1.68,2.09 0.61,0.63 1.27,1.17 1.98,1.63 0.72,0.47 1.51,0.87 2.36,1.18l0.27 0.1c0.8,0.28 1.66,0.49 2.59,0.64 1.02,0.17 2.15,0.25 3.36,0.25l59.01 -0.05 0 21.89 -59.01 0c-1.22,0 -2.49,-0.06 -3.79,-0.17 -1.2,-0.1 -2.44,-0.27 -3.7,-0.49 -1.25,-0.23 -2.44,-0.51 -3.56,-0.83 -1.13,-0.32 -2.28,-0.72 -3.44,-1.18 -1.17,-0.46 -2.26,-0.96 -3.26,-1.46 -1.04,-0.53 -2.06,-1.11 -3.04,-1.73l-0.89 -0.57 0 -0.04c-0.68,-0.46 -1.33,-0.94 -1.96,-1.43 -0.92,-0.72 -1.8,-1.48 -2.62,-2.27 -0.83,-0.8 -1.63,-1.64 -2.39,-2.52 -0.74,-0.86 -1.45,-1.78 -2.12,-2.74 -0.65,-0.94 -1.28,-1.92 -1.85,-2.94 -0.55,-0.97 -1.08,-2.02 -1.57,-3.14 -0.44,-0.98 -0.83,-2.22 -1.17,-3.59 -0.36,-1.49 -0.66,-3.12 -0.9,-4.76 -0.27,-1.88 -0.48,-3.84 -0.63,-5.65 -0.16,-2.03 -0.24,-4.07 -0.24,-5.5l0 -48.79c0,-1.43 0.08,-3.31 0.24,-5.34 0.14,-1.81 0.35,-3.77 0.63,-5.65 0.24,-1.65 0.54,-3.28 0.9,-4.77 0.34,-1.38 0.72,-2.61 1.15,-3.58l0.51 -1.15 0.04 0c0.33,-0.67 0.67,-1.33 1.04,-1.98 0.58,-1.02 1.2,-2.01 1.85,-2.94 0.67,-0.96 1.38,-1.88 2.13,-2.74 0.75,-0.88 1.55,-1.73 2.38,-2.52 0.85,-0.81 1.72,-1.57 2.62,-2.28 0.94,-0.73 1.9,-1.41 2.86,-2.02 1.02,-0.65 2.04,-1.23 3.04,-1.74 1.06,-0.53 2.15,-1.03 3.25,-1.46 1.15,-0.46 2.31,-0.86 3.44,-1.18 1.13,-0.32 2.32,-0.6 3.57,-0.83 1.25,-0.23 2.49,-0.4 3.7,-0.5 1.3,-0.11 2.57,-0.17 3.79,-0.17l59.01 0 0 21.89c-19.66,-0.04 -39.35,-0.16 -59.01,-0.05 -1.22,0 -2.34,0.08 -3.37,0.25 -1.03,0.17 -1.99,0.42 -2.86,0.75 -0.85,0.32 -1.63,0.71 -2.36,1.18 -0.71,0.46 -1.37,1.01 -1.97,1.63 -0.63,0.65 -1.19,1.35 -1.68,2.1 -0.49,0.75 -0.91,1.54 -1.25,2.36 -0.35,0.84 -0.63,1.75 -0.83,2.71 -0.21,0.97 -0.35,2.01 -0.41,3.1 -0.6,5.7 -0.13,12.52 -0.13,18.37zm104.02 29.46c-0.08,3.78 -0.1,7.6 0.26,11 0.06,1.08 0.2,2.12 0.41,3.09 0.21,0.98 0.49,1.89 0.83,2.72 0.34,0.83 0.76,1.62 1.24,2.36 0.48,0.73 1.05,1.43 1.68,2.09 0.61,0.63 1.27,1.17 1.98,1.63 0.72,0.47 1.51,0.87 2.36,1.18l0.27 0.1c0.8,0.28 1.66,0.49 2.59,0.64 1.02,0.17 2.15,0.25 3.36,0.25l59.01 -0.05 0 21.89 -59.01 0c-1.22,0 -2.49,-0.06 -3.79,-0.17 -1.2,-0.1 -2.44,-0.27 -3.7,-0.49 -1.25,-0.23 -2.44,-0.51 -3.56,-0.83 -1.13,-0.32 -2.28,-0.72 -3.44,-1.18 -1.17,-0.46 -2.26,-0.96 -3.26,-1.46 -1.04,-0.53 -2.06,-1.11 -3.04,-1.73l-0.89 -0.57 0 -0.04c-0.68,-0.46 -1.33,-0.94 -1.96,-1.43 -0.92,-0.72 -1.8,-1.48 -2.62,-2.27 -0.83,-0.8 -1.63,-1.64 -2.39,-2.52 -0.74,-0.86 -1.45,-1.78 -2.12,-2.74 -0.65,-0.94 -1.28,-1.92 -1.85,-2.94 -0.55,-0.97 -1.08,-2.02 -1.57,-3.14 -0.44,-0.98 -0.83,-2.22 -1.17,-3.59 -0.36,-1.49 -0.66,-3.12 -0.9,-4.76 -0.27,-1.88 -0.48,-3.84 -0.63,-5.65 -0.16,-2.03 -0.24,-4.07 -0.24,-5.5l0 -48.79c0,-1.43 0.08,-3.31 0.24,-5.34 0.14,-1.81 0.35,-3.77 0.63,-5.65 0.24,-1.65 0.54,-3.28 0.9,-4.77 0.34,-1.38 0.72,-2.61 1.15,-3.58l0.51 -1.15 0.04 0c0.33,-0.67 0.67,-1.33 1.04,-1.98 0.58,-1.02 1.2,-2.01 1.85,-2.94 0.67,-0.96 1.38,-1.88 2.13,-2.74 0.75,-0.88 1.55,-1.73 2.38,-2.52 0.85,-0.81 1.72,-1.57 2.62,-2.28 0.94,-0.73 1.9,-1.41 2.86,-2.02 1.02,-0.65 2.04,-1.23 3.04,-1.74 1.06,-0.53 2.15,-1.03 3.25,-1.46 1.15,-0.46 2.31,-0.86 3.44,-1.18 1.13,-0.32 2.32,-0.6 3.57,-0.83 1.25,-0.23 2.49,-0.4 3.7,-0.5 1.3,-0.11 2.57,-0.17 3.79,-0.17l59.01 0 0 21.89c-19.66,-0.04 -39.35,-0.16 -59.01,-0.05 -1.22,0 -2.34,0.08 -3.37,0.25 -1.03,0.17 -1.99,0.42 -2.86,0.75 -0.85,0.32 -1.63,0.71 -2.36,1.18 -0.71,0.46 -1.37,1.01 -1.97,1.63 -0.63,0.65 -1.19,1.35 -1.68,2.1 -0.49,0.75 -0.91,1.54 -1.25,2.36 -0.35,0.84 -0.63,1.75 -0.83,2.71 -0.21,0.97 -0.35,2.01 -0.41,3.1 -0.37,3.52 -0.33,7.48 -0.25,11.37l-0.04 0 0 36.45 0.03 0zm82.02 43.08l0 -126.62 24.29 0 0 52.92c0,0.37 0.03,0.68 0.1,0.91l0.09 0.23c0.1,0.03 0.25,0.05 0.45,0.05l57.04 0 0.15 -0.41c0.07,-0.25 0.11,-0.57 0.11,-0.91l0 -52.8 24.3 0 0 130.46 -24.3 0 0 -53.36c0,-0.34 -0.03,-0.61 -0.09,-0.81l-0.1 -0.23 -0.38 -0.05 -56.8 0 -0.38 0.05 -0.1 0.19c-0.06,0.19 -0.09,0.44 -0.09,0.73l0 53.48 -24.29 0 0 -3.84zm24.48 -72.55l0.02 0.02 -0.02 -0.02zm123.27 -39.08c14.83,22.46 29.66,44.92 44.5,67.39 6.16,9.33 4.73,-6.95 4.73,-8.63l0 -71.31c0,-0.85 0.03,-1.66 0.1,-2.43l23.3 0c0.07,0.77 0.1,1.59 0.1,2.43l0 111.27c0,11.09 -4.59,16.63 -13.78,16.63 -2.3,0 -4.36,-0.32 -6.21,-1 -1.82,-0.65 -3.56,-1.71 -5.15,-3.12 -1.62,-1.44 -3.09,-3.12 -4.48,-5.06 -1.38,-1.91 -2.77,-3.88 -4.15,-5.89 -13.7,-21 -27.39,-41.99 -41.09,-62.99 -7.76,-11.89 -6.92,-1.15 -6.92,3.22l0 72.55c0,0.84 -0.03,1.66 -0.1,2.43l-23.82 0c-0.07,-0.77 -0.1,-1.58 -0.1,-2.43l0 -109.87c0,-4.15 0.44,-7.4 1.39,-9.74 1.05,-2.6 2.91,-4.71 5.45,-6.36 2.53,-1.62 5.27,-2.45 8.18,-2.45 2.33,0 4.3,0.39 5.92,1.12 1.65,0.76 3.09,1.76 4.33,3.03 1.24,1.27 2.5,2.89 3.8,4.92 1.3,2 2.65,4.09 4.03,6.3zm118.06 -14.99l31.43 0 1.9 0.05 1.97 0.12 1.85 0.21c1.29,0.21 2.47,0.41 3.75,0.68l1.81 0.47 1.75 0.55 1.77 0.66 1.72 0.72c2.28,1.09 4.11,2.1 6.2,3.54l1.42 1.06 1.39 1.14 1.32 1.2 1.25 1.26 1.19 1.32 1.12 1.37 1.05 1.44 1.01 1.51 0.89 1.48 0.83 1.56 0.78 1.65c0.23,0.52 0.44,1.09 0.64,1.69 0.2,0.62 0.39,1.31 0.57,2.05l0.5 2.29 0.42 2.53 0.36 2.84 0.27 2.87 0.18 2.91 0.07 2.5 0 47.07 -0.07 2.5 -0.18 2.9 -0.27 2.89 -0.36 2.83 -0.42 2.53 -0.5 2.29c-0.18,0.73 -0.37,1.41 -0.57,2.03 -0.19,0.6 -0.41,1.17 -0.64,1.7l-0.49 1.1c-1,1.9 -1.82,3.31 -3.01,5.11l-1.06 1.44 -1.11 1.36 -1.19 1.32c-0.89,0.9 -1.66,1.63 -2.59,2.48l-1.37 1.14 -1.43 1.07 -1.47 0.99 -2.27 1.44 -0.06 -0.1 -0.78 0.42 -1.61 0.77c-1.18,0.51 -2.25,0.93 -3.47,1.37l-1.76 0.55 -1.79 0.46c-1.28,0.27 -2.47,0.48 -3.77,0.69l-2.76 0.29 -2.96 0.09 -31.42 0 -1.9 -0.05 -1.97 -0.12 -1.85 -0.21c-1.3,-0.21 -2.49,-0.41 -3.77,-0.69l-1.79 -0.46 -1.77 -0.55c-1.86,-0.68 -3.27,-1.28 -5.07,-2.14l-1.59 -0.85 -2.83 -1.74 0 -0.06 -1.64 -1.21 -1.36 -1.12 -1.32 -1.2 -1.26 -1.27 -1.19 -1.32 -1.12 -1.37 -1.05 -1.43 -0.99 -1.5 -0.9 -1.5 -0.83 -1.57 -0.78 -1.65c-0.23,-0.53 -0.45,-1.11 -0.64,-1.7 -0.2,-0.62 -0.39,-1.31 -0.57,-2.03l-0.5 -2.31 -0.42 -2.51 -0.36 -2.83 -0.27 -2.89 -0.18 -2.91 -0.07 -2.5 0 -47.07 0.06 -2.49 0.18 -2.9 0.28 -2.93 0.36 -2.81 0.41 -2.49 0.51 -2.36c0.18,-0.72 0.37,-1.4 0.57,-2.03 0.19,-0.6 0.41,-1.17 0.64,-1.69l0.78 -1.64 0.83 -1.57 0.9 -1.5 0.99 -1.49 1.05 -1.43 1.12 -1.37 1.19 -1.32 1.26 -1.27 1.3 -1.18c1,-0.84 1.96,-1.6 3.03,-2.35l0 -0.04 2.83 -1.76 1.56 -0.84 1.62 -0.78 1.7 -0.72 1.79 -0.66 1.73 -0.54 1.79 -0.47 1.86 -0.38 1.91 -0.31 2.75 -0.29 2.96 -0.09zm49.92 70.9l0 -6.68c-0.06,-11.15 -0.41,-21.77 -0.97,-27.41 -0.07,-1.15 -0.22,-2.24 -0.44,-3.26 -0.23,-1.02 -0.54,-1.98 -0.93,-2.89 -0.38,-0.89 -0.85,-1.74 -1.39,-2.54 -0.55,-0.8 -1.18,-1.56 -1.89,-2.26 -0.69,-0.68 -1.45,-1.28 -2.27,-1.79 -0.82,-0.51 -1.71,-0.95 -2.67,-1.29 -1,-0.36 -2.08,-0.63 -3.22,-0.81 -1.14,-0.18 -2.38,-0.27 -3.71,-0.27l-4.95 -0 0 0.02c-9.22,-0.02 -18.59,-0.12 -27.81,-0.02 -1.32,0 -2.56,0.09 -3.71,0.27 -1.14,0.18 -2.22,0.45 -3.21,0.81 -0.96,0.34 -1.85,0.78 -2.68,1.29 -0.83,0.51 -1.59,1.12 -2.27,1.79 -0.71,0.7 -1.34,1.46 -1.89,2.26 -0.54,0.8 -1.01,1.64 -1.39,2.54 -0.39,0.91 -0.7,1.88 -0.93,2.9 -0.23,1.02 -0.38,2.11 -0.44,3.25 -0.54,5.09 -0.14,11 -0.14,16.18 0,11.23 -1.27,29.83 0.15,40.48 0.07,1.15 0.22,2.24 0.45,3.27 0.23,1.02 0.54,1.98 0.93,2.89 0.38,0.89 0.85,1.74 1.39,2.54 0.55,0.8 1.18,1.55 1.88,2.25 0.69,0.68 1.44,1.28 2.27,1.79 0.83,0.52 1.73,0.95 2.68,1.3l0.18 0.07c0.94,0.32 1.95,0.57 3.03,0.74 1.14,0.18 2.38,0.27 3.7,0.27 10.9,0 21.85,0.08 32.75,0 1.32,0 2.56,-0.09 3.7,-0.27 1.08,-0.17 2.09,-0.42 3.03,-0.74l0.18 -0.07c0.95,-0.34 1.85,-0.78 2.68,-1.3 0.83,-0.51 1.58,-1.11 2.27,-1.79 0.71,-0.7 1.34,-1.46 1.89,-2.26 0.54,-0.79 1.01,-1.64 1.39,-2.53 0.39,-0.91 0.7,-1.88 0.93,-2.89 0.23,-1.02 0.38,-2.11 0.44,-3.26 0.61,-4.92 0.92,-12.55 0.98,-22.56zm33.82 44.4c-0.66,-0.92 -1.3,-1.89 -1.88,-2.89 -0.59,-1.01 -1.12,-2.04 -1.59,-3.08 -0.46,-1.03 -0.87,-2.08 -1.22,-3.13 -0.35,-1.05 -0.64,-2.13 -0.88,-3.24 -0.17,-0.81 -0.32,-1.6 -0.43,-2.36l-0.09 -0.65 -0.36 0c0.04,-32.55 0.01,-67.4 0.01,-99.95l22.63 0c0,31.03 -0.22,64.01 -0.01,95.03 0,1.08 0.08,2.07 0.25,2.98 0.16,0.89 0.41,1.73 0.74,2.5 0.32,0.75 0.73,1.46 1.2,2.1 0.48,0.65 1.05,1.25 1.7,1.81 0.7,0.59 1.46,1.13 2.28,1.59 0.8,0.47 1.68,0.87 2.61,1.21 0.94,0.34 1.96,0.61 3.04,0.82 1.08,0.2 2.23,0.34 3.42,0.4 12.82,0 25.72,0.13 38.57,0.13l0 21.89 -33.26 0c-1.47,0 -3.44,-0.08 -5.59,-0.22 -1.87,-0.13 -3.93,-0.33 -5.96,-0.59 -1.77,-0.23 -3.48,-0.5 -4.97,-0.82 -1.41,-0.3 -2.68,-0.65 -3.69,-1.04l-0.02 -0.01c-1.12,-0.44 -2.21,-0.93 -3.27,-1.45 -1.06,-0.52 -2.09,-1.09 -3.08,-1.71 -0.99,-0.61 -1.96,-1.27 -2.9,-1.98l-0.74 -0.58 -0.04 0.08 -1.87 -1.71c-0.88,-0.8 -1.69,-1.62 -2.43,-2.45 -0.78,-0.88 -1.51,-1.78 -2.17,-2.69zm114.43 -115.3l31.43 0 1.9 0.05 1.97 0.12 1.85 0.21c1.29,0.21 2.47,0.41 3.75,0.68l1.81 0.47 1.75 0.55 1.77 0.66 1.72 0.72c2.28,1.09 4.11,2.1 6.2,3.54l1.42 1.06 1.39 1.14 1.32 1.2 1.25 1.26 1.19 1.32 1.12 1.37 1.05 1.44 1.01 1.51 0.89 1.48 0.83 1.56 0.78 1.65c0.23,0.52 0.44,1.09 0.64,1.69 0.2,0.62 0.39,1.31 0.57,2.05l0.5 2.29 0.42 2.53 0.36 2.84 0.27 2.87 0.18 2.91 0.07 2.5 0 47.07 -0.07 2.5 -0.18 2.9 -0.27 2.89 -0.36 2.83 -0.42 2.53 -0.5 2.29c-0.18,0.73 -0.37,1.41 -0.57,2.03 -0.19,0.6 -0.41,1.17 -0.64,1.7l-0.49 1.1c-1,1.9 -1.82,3.31 -3.01,5.11l-1.06 1.44 -1.11 1.36 -1.19 1.32c-0.89,0.9 -1.66,1.63 -2.59,2.48l-1.37 1.14 -1.43 1.07 -1.47 0.99 -2.27 1.44 -0.06 -0.1 -0.78 0.42 -1.61 0.77c-1.18,0.51 -2.25,0.93 -3.47,1.37l-1.76 0.55 -1.79 0.46c-1.28,0.27 -2.47,0.48 -3.77,0.69l-2.76 0.29 -2.96 0.09 -31.42 0 -1.9 -0.05 -1.97 -0.12 -1.85 -0.21c-1.3,-0.21 -2.49,-0.41 -3.77,-0.69l-1.79 -0.46 -1.77 -0.55c-1.86,-0.68 -3.27,-1.28 -5.07,-2.14l-1.59 -0.85 -2.83 -1.74 0 -0.06 -1.64 -1.21 -1.36 -1.12 -1.32 -1.2 -1.26 -1.27 -1.19 -1.32 -1.12 -1.37 -1.05 -1.43 -0.99 -1.5 -0.9 -1.5 -0.83 -1.57 -0.78 -1.65c-0.23,-0.53 -0.45,-1.11 -0.64,-1.7 -0.2,-0.62 -0.39,-1.31 -0.57,-2.03l-0.5 -2.31 -0.42 -2.51 -0.36 -2.83 -0.27 -2.89 -0.18 -2.91 -0.07 -2.5 0 -47.07 0.06 -2.49 0.18 -2.9 0.28 -2.93 0.36 -2.81 0.41 -2.49 0.51 -2.36c0.18,-0.72 0.37,-1.4 0.57,-2.03 0.19,-0.6 0.41,-1.17 0.64,-1.69l0.78 -1.64 0.83 -1.57 0.9 -1.5 0.99 -1.49 1.05 -1.43 1.12 -1.37 1.19 -1.32 1.26 -1.27 1.3 -1.18c1,-0.84 1.96,-1.6 3.03,-2.35l0 -0.04 2.83 -1.76 1.56 -0.84 1.62 -0.78 1.7 -0.72 1.79 -0.66 1.73 -0.54 1.79 -0.47 1.86 -0.38 1.91 -0.31 2.75 -0.29 2.96 -0.09zm49.92 70.9l0 -6.68c-0.06,-11.15 -0.41,-21.77 -0.97,-27.41 -0.07,-1.15 -0.22,-2.24 -0.44,-3.26 -0.23,-1.02 -0.54,-1.98 -0.93,-2.89 -0.38,-0.89 -0.85,-1.74 -1.39,-2.54 -0.55,-0.8 -1.18,-1.56 -1.89,-2.26 -0.69,-0.68 -1.45,-1.28 -2.27,-1.79 -0.82,-0.51 -1.71,-0.95 -2.67,-1.29 -1,-0.36 -2.08,-0.63 -3.22,-0.81 -1.14,-0.18 -2.38,-0.27 -3.71,-0.27l-4.95 -0 0 0.02c-9.22,-0.02 -18.59,-0.12 -27.81,-0.02 -1.32,0 -2.56,0.09 -3.71,0.27 -1.14,0.18 -2.22,0.45 -3.21,0.81 -0.96,0.34 -1.85,0.78 -2.68,1.29 -0.83,0.51 -1.59,1.12 -2.27,1.79 -0.71,0.7 -1.34,1.46 -1.89,2.26 -0.54,0.8 -1.01,1.64 -1.39,2.54 -0.39,0.91 -0.7,1.88 -0.93,2.9 -0.23,1.02 -0.38,2.11 -0.44,3.25 -0.54,5.09 -0.14,11 -0.14,16.18 0,11.23 -1.27,29.83 0.15,40.48 0.07,1.15 0.22,2.24 0.45,3.27 0.23,1.02 0.54,1.98 0.93,2.89 0.38,0.89 0.85,1.74 1.39,2.54 0.55,0.8 1.18,1.55 1.88,2.25 0.69,0.68 1.44,1.28 2.27,1.79 0.83,0.52 1.73,0.95 2.68,1.3l0.18 0.07c0.94,0.32 1.95,0.57 3.03,0.74 1.14,0.18 2.38,0.27 3.7,0.27 10.9,0 21.85,0.08 32.75,0 1.32,0 2.56,-0.09 3.7,-0.27 1.08,-0.17 2.09,-0.42 3.03,-0.74l0.18 -0.07c0.95,-0.34 1.85,-0.78 2.68,-1.3 0.83,-0.51 1.58,-1.11 2.27,-1.79 0.71,-0.7 1.34,-1.46 1.89,-2.26 0.54,-0.79 1.01,-1.64 1.39,-2.53 0.39,-0.91 0.7,-1.88 0.93,-2.89 0.23,-1.02 0.38,-2.11 0.44,-3.26 0.61,-4.92 0.92,-12.55 0.98,-22.56zm126.1 2.44l0 2.92 0 7.83 0 5.47c0,1.43 -0.12,3.47 -0.28,5.51 -0.14,1.81 -0.35,3.66 -0.63,5.55 -0.24,1.65 -0.54,3.28 -0.9,4.76 -0.33,1.36 -0.72,2.59 -1.16,3.58 -0.48,1.09 -1.01,2.14 -1.58,3.15 -0.58,1.02 -1.2,2.01 -1.85,2.94 -0.67,0.96 -1.39,1.88 -2.12,2.74l-0.01 0c-0.75,0.88 -1.55,1.72 -2.39,2.52 -0.84,0.81 -1.73,1.57 -2.64,2.29 -0.91,0.72 -1.86,1.39 -2.84,2.01 -0.98,0.62 -2,1.2 -3.04,1.73 -1.04,0.53 -2.13,1.02 -3.25,1.47 -1.13,0.45 -2.28,0.84 -3.44,1.17l0 0c-1.13,0.32 -2.32,0.6 -3.57,0.83 -1.26,0.23 -2.49,0.4 -3.69,0.5l0 -0.01c-1.3,0.12 -2.57,0.17 -3.79,0.17l-8.5 0 -4.83 0 -10.68 0c-1.22,0 -2.49,-0.06 -3.79,-0.17l0 0.01c-1.19,-0.1 -2.43,-0.27 -3.69,-0.5 -1.25,-0.23 -2.44,-0.51 -3.57,-0.83l0 -0c-1.16,-0.33 -2.31,-0.72 -3.44,-1.17 -1.12,-0.44 -2.21,-0.94 -3.25,-1.47 -1.04,-0.53 -2.06,-1.11 -3.04,-1.73 -0.98,-0.62 -1.93,-1.29 -2.84,-2.01 -0.91,-0.72 -1.79,-1.48 -2.63,-2.29 -0.83,-0.8 -1.63,-1.65 -2.39,-2.52l-0.01 0c-0.73,-0.86 -1.45,-1.78 -2.12,-2.74 -0.65,-0.93 -1.27,-1.92 -1.85,-2.94 -0.57,-1.01 -1.1,-2.06 -1.58,-3.15 -0.44,-0.99 -0.83,-2.22 -1.16,-3.58 -0.36,-1.48 -0.66,-3.11 -0.9,-4.76 -0.27,-1.88 -0.49,-3.84 -0.63,-5.66 -0.16,-2.04 -0.2,-4.08 -0.2,-5.51l0 -5.47 0 -26.05 0 -11.81 0 -5.47c0,-1.43 0.08,-3.31 0.24,-5.35 0.14,-1.81 0.35,-3.77 0.63,-5.66 0.24,-1.64 0.54,-3.27 0.9,-4.75 0.33,-1.36 0.72,-2.59 1.16,-3.59 0.48,-1.09 1.01,-2.14 1.58,-3.14 0.57,-1.02 1.19,-2 1.84,-2.93 0.66,-0.94 1.37,-1.86 2.13,-2.75 0.75,-0.88 1.55,-1.72 2.39,-2.52 0.84,-0.81 1.72,-1.57 2.63,-2.29 0.91,-0.72 1.87,-1.39 2.84,-2.01 0.98,-0.62 2,-1.2 3.04,-1.73 1.04,-0.53 2.13,-1.02 3.25,-1.46l-0 -0c1.12,-0.45 2.27,-0.84 3.44,-1.17l0.01 0c1.13,-0.32 2.33,-0.6 3.57,-0.83 1.26,-0.23 2.49,-0.4 3.68,-0.5l0 0.01c1.3,-0.12 2.57,-0.17 3.79,-0.17l57.13 0 1.83 0 1.91 0 0 1.92 0 1.92 0 14.22 0 1.92 0 1.92 -1.91 -0 -1.83 -0 -55.22 -0.05 0 0.01 -1.91 0c-1.23,0 -2.35,0.08 -3.38,0.25 -1.02,0.17 -1.98,0.42 -2.86,0.75l-0.02 0 0 0.01c-0.84,0.31 -1.63,0.71 -2.35,1.18 -0.72,0.47 -1.39,1.02 -1.98,1.63 -0.63,0.64 -1.19,1.35 -1.69,2.1l-0 -0c-0.48,0.74 -0.9,1.52 -1.24,2.35l0 0.01c-0.34,0.84 -0.63,1.75 -0.83,2.71l-0 0c-0.2,0.97 -0.34,2.01 -0.4,3.09l-0.01 0.1 -0.02 0.14 0 0.02 -0.05 0.41 0 0 -0.04 0.5 -0 0 -0.02 0.34 -0 0 -0.01 0.27 0.01 0 0 7.14 0 7.21 0 6.09 0 14.24 0 6.09 0 7.22 0 7.14 -0 0 0 0.25 0 0 -0.02 0.55 0.01 0.11 0 0 0.02 0.24 0 0 0.06 0.49 0 0.05 0.02 0.17 0.01 0.07c0.06,1.07 0.19,2.11 0.4,3.08l0 0.01c0.2,0.96 0.49,1.88 0.83,2.72 0.33,0.81 0.75,1.6 1.24,2.35 0.49,0.75 1.06,1.45 1.69,2.1 0.59,0.61 1.25,1.16 1.98,1.63 0.73,0.48 1.53,0.88 2.36,1.19l0.26 0.1c0.8,0.28 1.68,0.5 2.61,0.65 1.02,0.17 2.15,0.25 3.38,0.25l1.91 0 0 0.01 8.77 -0.01 -2.18 -0.01 8.95 0.01 -4.12 -0.01 2.18 0.01 6.59 0.01 0 -0.01 1.91 0c1.22,0 2.35,-0.08 3.37,-0.25 0.93,-0.15 1.8,-0.37 2.61,-0.65l0.26 -0.1c0.83,-0.31 1.63,-0.71 2.36,-1.19 0.72,-0.47 1.39,-1.02 1.98,-1.63 0.63,-0.65 1.19,-1.35 1.69,-2.1 0.49,-0.75 0.91,-1.54 1.24,-2.35 0.34,-0.84 0.63,-1.64 0.83,-2.61l0 -0.01c0.21,-0.97 0.34,-2 0.4,-3.08l0.01 -0.07 0.02 -0.17 0 -0.05 0.06 -0.49 0 0 0.02 -0.24 0 -0 0.01 -0.11 0.07 -0.55 0 0 0 -0.25 -0 0 0 -7.14 0 -7.22 0 -2.12 -25.47 0 0 -22.17 47.71 0 0 19.25zm7.77 53.29l0 -126.62 24.29 0 0 130.46 -24.29 0 0 -3.84zm54.93 -72.53l73.87 0 0 21.93 -73.87 0c0,5.86 -0.47,12.81 0.13,18.53 0.06,1.08 0.2,2.12 0.41,3.09 0.21,0.98 0.49,1.89 0.83,2.72 0.34,0.83 0.76,1.62 1.24,2.36 0.48,0.73 1.05,1.43 1.68,2.09 0.61,0.63 1.27,1.17 1.98,1.63 0.72,0.47 1.51,0.87 2.36,1.18l0.27 0.1c0.8,0.28 1.66,0.49 2.59,0.64 1.02,0.17 2.15,0.25 3.36,0.25l59.01 -0.05 0 21.89 -59.01 0c-1.22,0 -2.49,-0.06 -3.79,-0.17 -1.2,-0.1 -2.44,-0.27 -3.7,-0.49 -1.25,-0.23 -2.44,-0.51 -3.56,-0.83 -1.13,-0.32 -2.28,-0.72 -3.44,-1.18 -1.17,-0.46 -2.26,-0.96 -3.26,-1.46 -1.04,-0.53 -2.06,-1.11 -3.04,-1.73l-0.89 -0.57 0 -0.04c-0.68,-0.46 -1.33,-0.94 -1.96,-1.43 -0.92,-0.72 -1.8,-1.48 -2.62,-2.27 -0.83,-0.8 -1.63,-1.64 -2.39,-2.52 -0.74,-0.86 -1.45,-1.78 -2.12,-2.74 -0.65,-0.94 -1.28,-1.92 -1.85,-2.94 -0.55,-0.97 -1.08,-2.02 -1.57,-3.14 -0.44,-0.98 -0.83,-2.22 -1.17,-3.59 -0.36,-1.49 -0.66,-3.12 -0.9,-4.76 -0.27,-1.88 -0.48,-3.84 -0.63,-5.65 -0.16,-2.03 -0.24,-4.07 -0.24,-5.5l0 -48.79c0,-1.43 0.08,-3.31 0.24,-5.34 0.14,-1.81 0.35,-3.77 0.63,-5.65 0.24,-1.65 0.54,-3.28 0.9,-4.77 0.34,-1.38 0.72,-2.61 1.15,-3.58l0.51 -1.15 0.04 0c0.33,-0.67 0.67,-1.33 1.04,-1.98 0.58,-1.02 1.2,-2.01 1.85,-2.94 0.67,-0.96 1.38,-1.88 2.13,-2.74 0.75,-0.88 1.55,-1.73 2.38,-2.52 0.85,-0.81 1.72,-1.57 2.62,-2.28 0.94,-0.73 1.9,-1.41 2.86,-2.02 1.02,-0.65 2.04,-1.23 3.04,-1.74 1.06,-0.53 2.15,-1.03 3.25,-1.46 1.15,-0.46 2.31,-0.86 3.44,-1.18 1.13,-0.32 2.32,-0.6 3.57,-0.83 1.25,-0.23 2.49,-0.4 3.7,-0.5 1.3,-0.11 2.57,-0.17 3.79,-0.17l59.01 0 0 21.89c-19.66,-0.04 -39.35,-0.16 -59.01,-0.05 -1.22,0 -2.34,0.08 -3.37,0.25 -1.03,0.17 -1.99,0.42 -2.86,0.75 -0.85,0.32 -1.63,0.71 -2.36,1.18 -0.71,0.46 -1.37,1.01 -1.97,1.63 -0.63,0.65 -1.19,1.35 -1.68,2.1 -0.49,0.75 -0.91,1.54 -1.25,2.36 -0.35,0.84 -0.63,1.75 -0.83,2.71 -0.21,0.97 -0.35,2.01 -0.41,3.1 -0.6,5.7 -0.13,12.52 -0.13,18.37z"/>
 </g>
</svg>
