<?xml version="1.0" encoding="UTF-8"?>
<!DOCTYPE svg PUBLIC "-//W3C//DTD SVG 1.1//EN" "http://www.w3.org/Graphics/SVG/1.1/DTD/svg11.dtd">
<!-- Creator: CorelDRAW 2018 (64-Bit) -->
<svg xmlns="http://www.w3.org/2000/svg" xml:space="preserve" width="0.595945in" height="0.666665in" version="1.1" style="shape-rendering:geometricPrecision; text-rendering:geometricPrecision; image-rendering:optimizeQuality; fill-rule:evenodd; clip-rule:evenodd"
viewBox="0 0 3.54 3.96"
 xmlns:xlink="http://www.w3.org/1999/xlink">
 <defs>
  <style type="text/css">
   <![CDATA[
    .fil0 {fill:#6F706F;fill-rule:nonzero}
   ]]>
  </style>
 </defs>
 <g id="Layer_x0020_1">
  <metadata id="CorelCorpID_0Corel-Layer"/>
  <path class="fil0" d="M3.11 1.81l-0.01 0c-0.11,0.01 -0.21,0.09 -0.26,0.19l-0 0c-0.04,0.11 -0.03,0.23 0.04,0.32l0.01 0.01 -0 0 -0.2 0.2 -0 -0 -0.01 -0.01c-0.09,-0.07 -0.21,-0.09 -0.32,-0.04l-0 0c-0.11,0.04 -0.18,0.14 -0.2,0.26l-0 0.01 -0.28 0 -0 -0.01c-0.01,-0.11 -0.09,-0.21 -0.19,-0.26l-0.02 -0.01 0 -0 0.2 -0.2 0.01 0c0.21,0.05 0.43,-0.01 0.59,-0.17 0.18,-0.18 0.23,-0.44 0.14,-0.68 -0.01,-0.02 -0.03,-0.04 -0.05,-0.04 -0.02,-0 -0.04,0 -0.06,0.02l-0.3 0.3 -0 -0 -0.17 -0.04 -0 -0.01 -0.04 -0.17 0 -0 0.3 -0.3c0.02,-0.02 0.02,-0.04 0.02,-0.06 -0,-0.02 -0.02,-0.04 -0.04,-0.05 -0.23,-0.09 -0.5,-0.04 -0.68,0.14 -0.16,0.16 -0.22,0.38 -0.17,0.59l0 0.01 -0 0 -0.2 0.2 -0.01 -0.02c-0,-0 -0,-0 -0,-0l-0 -0c-0.04,-0.11 -0.14,-0.18 -0.26,-0.19l-0.01 -0 0 -0.28 0.01 -0c0.11,-0.01 0.21,-0.09 0.26,-0.2l0 -0c0.04,-0.11 0.03,-0.23 -0.04,-0.32l-0.01 -0.01 0 -0 0.01 -0.01 0.19 -0.19 0 0 0.01 0.01c0.09,0.07 0.21,0.09 0.32,0.04l0 -0c0.11,-0.04 0.18,-0.14 0.19,-0.26l0 -0.01 0.28 0 0 0.01c0.01,0.11 0.09,0.21 0.2,0.26l0 0c0.11,0.04 0.23,0.03 0.32,-0.04l0.01 -0.01 0 0 0.2 0.2 -0.01 0.01c-0.07,0.09 -0.09,0.21 -0.04,0.32l0 0c0.04,0.11 0.14,0.18 0.26,0.2l0.01 0 0 0.28zm-1.61 0.66l-0 0c-0.05,0.01 -0.09,0.03 -0.13,0.06l-0.01 0.01 -0 -0 -0.2 -0.2 0.01 -0.01c0.03,-0.04 0.05,-0.08 0.06,-0.12l0 -0 0 -0c0,-0 0,-0 0,-0l0.31 -0.31c0.02,-0.02 0.02,-0.04 0.02,-0.07 -0.06,-0.18 -0.01,-0.37 0.12,-0.5 0.09,-0.09 0.22,-0.15 0.35,-0.15 0.02,0 0.04,0 0.06,0l0.02 0 -0 0 -0.24 0.24c-0.02,0.02 -0.02,0.04 -0.02,0.06l0.06 0.25c0.01,0.02 0.02,0.04 0.05,0.05l0.25 0.06c0.02,0.01 0.05,-0 0.06,-0.02l0.24 -0.24 0 0.02c0.02,0.15 -0.03,0.3 -0.14,0.41 -0.13,0.13 -0.32,0.18 -0.5,0.12 -0.03,-0.01 -0.05,-0 -0.07,0.02l-0.3 0.3zm1.68 -0.53c0.04,0 0.07,-0.03 0.07,-0.07l0 -0.41c0,-0.04 -0.03,-0.07 -0.07,-0.07l-0.04 0c-0.07,0 -0.14,-0.05 -0.17,-0.12l-0 -0c-0.03,-0.07 -0.01,-0.15 0.04,-0.2l0.03 -0.03c0.01,-0.01 0.02,-0.03 0.02,-0.05 0,-0.02 -0.01,-0.03 -0.02,-0.05l-0.29 -0.29c-0.01,-0.01 -0.03,-0.02 -0.05,-0.02 -0.02,0 -0.03,0.01 -0.05,0.02l-0.03 0.03c-0.05,0.05 -0.13,0.07 -0.2,0.04l-0 -0c-0.07,-0.03 -0.12,-0.1 -0.12,-0.17l0 -0.04c0,-0.04 -0.03,-0.07 -0.07,-0.07l-0.41 0c-0.04,0 -0.07,0.03 -0.07,0.07l0 0.04c0,0.07 -0.05,0.14 -0.12,0.17l-0 0c-0.07,0.03 -0.15,0.01 -0.2,-0.04l-0.03 -0.03c-0.01,-0.01 -0.03,-0.02 -0.05,-0.02l-0 0c-0.02,0 -0.03,0.01 -0.05,0.02l-0.29 0.29c-0.01,0.01 -0.02,0.03 -0.02,0.05 0,0.02 0.01,0.03 0.02,0.05l0.03 0.03c0.05,0.05 0.07,0.13 0.04,0.2l-0 0c-0.03,0.07 -0.1,0.12 -0.17,0.12l-0.04 0c-0.04,0 -0.07,0.03 -0.07,0.07l0 0.41c0,0.04 0.03,0.07 0.07,0.07l0.04 0c0.07,0 0.14,0.05 0.17,0.12l0 0c0.03,0.07 0.01,0.15 -0.04,0.2l-0.03 0.03c-0.01,0.01 -0.02,0.03 -0.02,0.05 0,0.02 0.01,0.03 0.02,0.05l0.29 0.29c0.01,0.01 0.03,0.02 0.05,0.02l0 0c0.02,-0 0.03,-0.01 0.05,-0.02l0.03 -0.03c0.03,-0.03 0.08,-0.05 0.13,-0.05 0.03,0 0.05,0 0.07,0.01l0 0c0.07,0.03 0.11,0.1 0.11,0.17l0 0.04c0,0.04 0.03,0.07 0.07,0.07l0.41 0c0.04,0 0.07,-0.03 0.07,-0.07l0 -0.04c0,-0.07 0.05,-0.14 0.12,-0.17l0 -0c0.07,-0.03 0.15,-0.01 0.2,0.04l0.03 0.03c0.03,0.03 0.07,0.03 0.09,0l0.29 -0.29c0.01,-0.01 0.02,-0.03 0.02,-0.05 0,-0.02 -0.01,-0.03 -0.02,-0.05l-0.03 -0.03c-0.05,-0.05 -0.07,-0.13 -0.04,-0.2l0 -0c0.03,-0.07 0.1,-0.12 0.17,-0.12l0.04 0z"/>
  <path class="fil0" d="M3.41 3.21l-2.78 0 0 -3.08 2.78 0 0 3.08zm0 0.31l-2.85 0c-0.04,0 -0.07,0.03 -0.07,0.07 0,0.04 0.03,0.07 0.07,0.07l2.85 0 0 0.18 -3.03 0c-0.14,0 -0.25,-0.11 -0.25,-0.25 0,-0.14 0.11,-0.25 0.25,-0.25l3.03 0 0 0.18zm-3.28 -3.14c0,-0.14 0.11,-0.25 0.25,-0.25l0.12 0 0 3.08 -0.12 0c-0.08,0 -0.16,0.03 -0.23,0.08l-0.02 0.01 0 -2.92zm3.34 -0.38l-3.1 0c-0.21,0 -0.38,0.17 -0.38,0.38l0 3.21c0,0.21 0.17,0.38 0.38,0.38l3.1 0c0.04,0 0.07,-0.03 0.07,-0.07l0 -3.83c0,-0.04 -0.03,-0.07 -0.07,-0.07z"/>
 </g>
</svg>
