<?xml version="1.0" encoding="UTF-8"?>
<!DOCTYPE svg PUBLIC "-//W3C//DTD SVG 1.1//EN" "http://www.w3.org/Graphics/SVG/1.1/DTD/svg11.dtd">
<!-- Creator: CorelDRAW 2019 (64-Bit) -->
<svg xmlns="http://www.w3.org/2000/svg" xml:space="preserve" width="0.135016in" height="0.485291in" version="1.1" style="shape-rendering:geometricPrecision; text-rendering:geometricPrecision; image-rendering:optimizeQuality; fill-rule:evenodd; clip-rule:evenodd"
viewBox="0 0 15.39 55.33"
 xmlns:xlink="http://www.w3.org/1999/xlink"
 xmlns:xodm="http://www.corel.com/coreldraw/odm/2003">
 <defs>
  <style type="text/css">
   <![CDATA[
    .fil0 {fill:#FEFEFE;fill-rule:nonzero}
   ]]>
  </style>
 </defs>
 <g id="Layer_x0020_1">
  <metadata id="CorelCorpID_0Corel-Layer"/>
  <path class="fil0" d="M10.45 40.17c1.02,-0.06 2.05,-0.16 3.06,-0.3 0.1,-0.01 0.21,0.02 0.29,0.09 0.08,0.07 0.12,0.17 0.12,0.28l0.11 0c0,-0.14 -0.06,-0.27 -0.16,-0.36 -0.1,-0.09 -0.24,-0.13 -0.38,-0.11 -1.01,0.13 -2.03,0.23 -3.05,0.3 -0.25,0.02 -0.45,0.22 -0.45,0.48l0 1.64c0,0.13 0.06,0.26 0.15,0.35 0.09,0.08 0.21,0.13 0.33,0.13 0.01,0 0.02,0 0.03,-0l-0 -0.03 0 0 0 0.03c1.03,-0.07 2.08,-0.17 3.11,-0.31 0.23,-0.03 0.41,-0.23 0.41,-0.47 0.01,-0.54 0.01,-1.09 0.01,-1.64l-0.11 0c0,0.54 -0,1.1 -0.01,1.64 -0,0.18 -0.14,0.33 -0.32,0.36 -1.03,0.14 -2.07,0.24 -3.11,0.31 -0.1,0 -0.2,-0.03 -0.27,-0.1 -0.07,-0.07 -0.12,-0.17 -0.12,-0.27l0 -1.64c0,-0.19 0.15,-0.35 0.34,-0.37zm4.34 8.48l-0.03 0.89c-0.06,1.8 -0.52,3.14 -1.37,3.97 -1.35,1.32 -3.65,1.5 -5.72,1.5 -2.07,0 -4.37,-0.18 -5.72,-1.5 -0.85,-0.83 -1.3,-2.16 -1.37,-3.97l-0.03 -0.89c-0.22,-6.38 -0.43,-12.4 0.18,-18.74 0.22,-2.28 1.22,-3.43 2.99,-3.43l0.06 0 0 2.67c0,0.25 0.2,0.46 0.45,0.46l6.9 0c0.25,0 0.45,-0.21 0.45,-0.46l0 -2.67 0.06 0c1.76,0 2.77,1.15 2.99,3.43 0.6,6.35 0.4,12.37 0.18,18.74zm-10.69 -19.62c0.09,0.07 0.2,0.11 0.32,0.11l6.5 0c0.12,0 0.23,-0.04 0.32,-0.11l0 0.12c0,0.07 -0.05,0.13 -0.12,0.13l-6.9 0c-0.07,0 -0.12,-0.06 -0.12,-0.13l0 -0.12zm-3.54 -6.88c-0.01,-0.23 -0.01,-0.47 -0.02,-0.71 -0.02,-0.75 -0.05,-1.47 -0.08,-2.19 -0.07,-1.88 -0.13,-3.66 -0.13,-5.51 0,-1.84 0.07,-3.8 0.14,-5.69 0.03,-0.71 0.05,-1.42 0.07,-2.13 0.05,-1.7 0.55,-3.22 1.32,-4.05 1.25,-1.34 3.55,-1.53 5.84,-1.53 2.29,0 4.59,0.19 5.84,1.53 0.77,0.83 1.27,2.34 1.32,4.05 0.02,0.71 0.05,1.42 0.07,2.13 0.07,1.89 0.14,3.85 0.14,5.69 0,1.86 -0.07,3.63 -0.13,5.51 -0.03,0.72 -0.05,1.44 -0.08,2.19 -0.01,0.24 -0.01,0.48 -0.02,0.71 -0.05,2.09 -0.1,3.89 -1.49,4.45 -0.47,-0.3 -1.05,-0.45 -1.72,-0.45l-0.06 0 0 -0.61 -0.33 0 0 3.31c-0.08,0.09 -0.19,0.15 -0.32,0.15l-6.5 0c-0.13,0 -0.24,-0.06 -0.32,-0.15l0 -3.31 -0.33 0 0 0.61 -0.06 0c-0.67,0 -1.23,0.15 -1.7,0.44 -1.36,-0.58 -1.4,-2.37 -1.45,-4.44zm13.1 4.68c1.41,-0.71 1.46,-2.56 1.51,-4.67 0,-0.23 0.01,-0.47 0.02,-0.71 0.02,-0.75 0.05,-1.47 0.08,-2.19 0.07,-1.88 0.14,-3.66 0.14,-5.53 -0,-1.85 -0.07,-3.81 -0.14,-5.7 -0.03,-0.71 -0.05,-1.42 -0.07,-2.13 -0.03,-0.86 -0.22,-2.98 -1.41,-4.26 -1.34,-1.44 -3.71,-1.63 -6.08,-1.63 -2.37,0 -4.74,0.2 -6.08,1.63 -1.19,1.28 -1.38,3.4 -1.41,4.26 -0.02,0.71 -0.05,1.42 -0.07,2.13 -0.07,1.89 -0.14,3.85 -0.14,5.7 0,1.87 0.07,3.65 0.14,5.53 0.03,0.72 0.05,1.44 0.08,2.19 0.01,0.24 0.01,0.47 0.02,0.71 0.05,2.1 0.1,3.93 1.47,4.65 -0.73,0.61 -1.17,1.63 -1.3,3.07 -0.61,6.37 -0.4,12.4 -0.18,18.79l0.03 0.89c0.07,1.89 0.56,3.3 1.47,4.19 1.43,1.4 3.81,1.59 5.95,1.59 2.14,0 4.52,-0.19 5.95,-1.59 0.91,-0.89 1.4,-2.3 1.47,-4.19l0.03 -0.89c0.22,-6.39 0.43,-12.42 -0.18,-18.79 -0.14,-1.43 -0.57,-2.45 -1.28,-3.05zm0.43 5.51c0.28,5.71 0.25,11.51 -0.07,17.22l0.08 0 -0.08 -0c-0.01,0.13 -0.02,0.26 -0.05,0.39 -0.03,0.14 -0.06,0.27 -0.11,0.39 -0.05,0.12 -0.1,0.24 -0.17,0.34 -0.07,0.1 -0.14,0.2 -0.23,0.29 -0.09,0.09 -0.19,0.17 -0.29,0.24 -0.11,0.07 -0.23,0.14 -0.36,0.2 -0.13,0.06 -0.28,0.11 -0.44,0.15 -0.15,0.04 -0.3,0.07 -0.47,0.09l0.01 0.08 -0.01 -0.08c-2.8,0.37 -5.64,0.37 -8.44,0l-0.01 0.08 0.01 -0.08c-0.16,-0.02 -0.32,-0.05 -0.47,-0.09 -0.16,-0.04 -0.31,-0.09 -0.44,-0.15 -0.13,-0.06 -0.25,-0.12 -0.36,-0.2 -0.11,-0.07 -0.21,-0.15 -0.29,-0.24 -0.09,-0.09 -0.17,-0.19 -0.23,-0.29 -0.07,-0.11 -0.13,-0.22 -0.17,-0.34 -0.05,-0.12 -0.08,-0.25 -0.11,-0.39 -0.02,-0.12 -0.04,-0.26 -0.05,-0.39l-0.08 0 0.08 -0c-0.32,-5.71 -0.34,-11.51 -0.07,-17.22 0,-0.11 0.01,-0.21 0.03,-0.3 0.01,-0.11 0.03,-0.22 0.06,-0.31 0.03,-0.1 0.06,-0.19 0.09,-0.27 0.04,-0.08 0.08,-0.16 0.14,-0.23 0.06,-0.07 0.12,-0.14 0.2,-0.19 0.08,-0.06 0.16,-0.11 0.26,-0.16 0.09,-0.04 0.2,-0.09 0.32,-0.12 0.11,-0.04 0.23,-0.07 0.36,-0.1 0.12,-0.03 0.25,-0.05 0.4,-0.08 0.14,-0.02 0.27,-0.04 0.41,-0.06 2.76,-0.35 5.56,-0.35 8.32,0 0.14,0.02 0.27,0.04 0.41,0.06 0.15,0.02 0.28,0.05 0.4,0.08 0.14,0.03 0.25,0.06 0.36,0.1 0.12,0.04 0.22,0.08 0.32,0.12 0.1,0.05 0.19,0.1 0.26,0.16 0.07,0.06 0.14,0.12 0.2,0.19 0.05,0.07 0.1,0.14 0.14,0.23 0.04,0.08 0.07,0.17 0.09,0.27 0.02,0.09 0.04,0.19 0.06,0.31 0.01,0.09 0.02,0.19 0.03,0.3l0.16 -0.01c-0,-0.11 -0.01,-0.21 -0.03,-0.31 -0.01,-0.12 -0.04,-0.23 -0.06,-0.33 -0.03,-0.11 -0.06,-0.21 -0.1,-0.3 -0.04,-0.1 -0.1,-0.18 -0.16,-0.26 -0.06,-0.08 -0.14,-0.16 -0.22,-0.22 -0.08,-0.06 -0.18,-0.12 -0.29,-0.18 -0.1,-0.05 -0.21,-0.09 -0.34,-0.13 -0.11,-0.04 -0.24,-0.07 -0.38,-0.1 -0.13,-0.03 -0.26,-0.05 -0.41,-0.08 -0.14,-0.02 -0.28,-0.04 -0.41,-0.06 -2.77,-0.35 -5.59,-0.35 -8.36,0l0.01 0.08 -0.01 -0.08c-0.14,0.02 -0.28,0.04 -0.41,0.06 -0.15,0.03 -0.28,0.05 -0.41,0.08 -0.14,0.03 -0.26,0.06 -0.38,0.1 -0.13,0.04 -0.24,0.08 -0.34,0.13 -0.11,0.05 -0.21,0.11 -0.29,0.18 -0.09,0.07 -0.16,0.14 -0.22,0.22 -0.06,0.08 -0.11,0.17 -0.16,0.26 -0.04,0.09 -0.07,0.19 -0.1,0.29 -0.03,0.1 -0.05,0.21 -0.06,0.33 -0.01,0.1 -0.02,0.2 -0.03,0.31 -0.28,5.72 -0.25,11.52 0.07,17.24l0 0c0.01,0.14 0.02,0.28 0.05,0.41 0.03,0.15 0.07,0.29 0.12,0.42 0.05,0.13 0.11,0.26 0.19,0.37 0.07,0.12 0.16,0.22 0.25,0.32 0.1,0.1 0.2,0.19 0.32,0.26 0.12,0.08 0.25,0.15 0.39,0.21 0.14,0.06 0.3,0.11 0.47,0.16 0.15,0.04 0.32,0.07 0.48,0.09l-0 0c1.41,0.18 2.82,0.28 4.24,0.28 1.42,0 2.83,-0.09 4.24,-0.28 0.17,-0.02 0.33,-0.05 0.48,-0.09 0.17,-0.04 0.32,-0.1 0.47,-0.16 0.14,-0.06 0.27,-0.13 0.39,-0.21 0.12,-0.08 0.22,-0.17 0.32,-0.26 0.1,-0.1 0.18,-0.2 0.25,-0.32 0.07,-0.11 0.13,-0.24 0.19,-0.37 0.05,-0.13 0.09,-0.27 0.12,-0.42 0.03,-0.13 0.04,-0.27 0.05,-0.41l0 0c0.32,-5.72 0.34,-11.52 0.07,-17.23l-0.16 0.01zm-12.29 4.08c-0.18,-0.02 -0.3,-0.17 -0.3,-0.35 0.03,-1.23 0.08,-2.48 0.14,-3.71l0 -0.08c0.01,-0.1 0.02,-0.19 0.03,-0.28 0.02,-0.11 0.04,-0.2 0.07,-0.29 0.03,-0.08 0.06,-0.15 0.1,-0.2 0.04,-0.05 0.08,-0.1 0.13,-0.15 0.05,-0.04 0.12,-0.09 0.2,-0.13 0.08,-0.04 0.17,-0.08 0.28,-0.11 0.1,-0.03 0.21,-0.06 0.34,-0.09 0.12,-0.03 0.24,-0.05 0.38,-0.07 0.13,-0.02 0.27,-0.04 0.4,-0.06 2.73,-0.35 5.49,-0.35 8.22,0 0.13,0.02 0.27,0.04 0.4,0.06 0.14,0.02 0.26,0.05 0.38,0.07 0.13,0.03 0.24,0.06 0.34,0.09 0.1,0.03 0.19,0.07 0.28,0.11 0.08,0.04 0.14,0.08 0.2,0.13 0.05,0.04 0.1,0.1 0.14,0.15 0.04,0.06 0.07,0.13 0.1,0.2 0.03,0.08 0.05,0.18 0.07,0.29 0.01,0.09 0.02,0.18 0.03,0.28l0 0.08 0.01 -0 0 0 -0.01 0c0.06,1.23 0.11,2.47 0.14,3.71 0,0.18 -0.13,0.33 -0.3,0.35 -3.9,0.52 -7.86,0.52 -11.76,0zm11.77 0.13l0 0.01c0.25,-0.03 0.42,-0.24 0.42,-0.49 -0.03,-1.23 -0.08,-2.48 -0.14,-3.71l-0.01 0 0.01 -0c-0.01,-0.14 -0.02,-0.26 -0.04,-0.38 -0.02,-0.12 -0.04,-0.22 -0.08,-0.31 -0.03,-0.09 -0.07,-0.17 -0.11,-0.24 -0.04,-0.07 -0.1,-0.13 -0.16,-0.18 -0.06,-0.05 -0.14,-0.1 -0.23,-0.14 -0.09,-0.04 -0.18,-0.08 -0.29,-0.12 -0.11,-0.03 -0.22,-0.06 -0.35,-0.09 -0.12,-0.03 -0.24,-0.05 -0.38,-0.07 -0.14,-0.02 -0.27,-0.04 -0.41,-0.06l-0 0.01 -0 0 0 -0.01c-2.74,-0.35 -5.52,-0.35 -8.26,0l0 0.01 0 0 -0 -0.01c-0.14,0.02 -0.27,0.04 -0.41,0.06 -0.14,0.02 -0.27,0.05 -0.39,0.07 -0.13,0.03 -0.24,0.06 -0.35,0.09 -0.11,0.04 -0.21,0.07 -0.29,0.12 -0.09,0.04 -0.16,0.09 -0.23,0.14 -0.06,0.05 -0.12,0.11 -0.16,0.18 -0.05,0.07 -0.08,0.14 -0.12,0.24 -0.03,0.09 -0.06,0.19 -0.07,0.31 -0.02,0.11 -0.03,0.24 -0.04,0.38l0.02 0 -0.02 -0c-0.06,1.24 -0.11,2.49 -0.14,3.71 -0.01,0.25 0.17,0.46 0.42,0.49l0 -0.01 -0 0.01c1.96,0.26 3.93,0.39 5.9,0.39 1.97,0 3.94,-0.13 5.9,-0.39l-0 -0.01zm-8.33 12.72l0 1.81c0,0.1 -0.04,0.2 -0.12,0.27 -0.08,0.07 -0.18,0.1 -0.28,0.09 -0.45,-0.04 -0.9,-0.09 -1.34,-0.15 -0.17,-0.02 -0.33,-0.05 -0.48,-0.09 -0.14,-0.04 -0.28,-0.09 -0.4,-0.14 -0.12,-0.06 -0.22,-0.12 -0.32,-0.19 -0.09,-0.07 -0.18,-0.15 -0.25,-0.23 -0.07,-0.09 -0.13,-0.18 -0.19,-0.29 -0.05,-0.11 -0.1,-0.23 -0.13,-0.36 -0.03,-0.14 -0.06,-0.29 -0.06,-0.45 -0.01,-0.17 -0.02,-0.35 -0.03,-0.52 -0.01,-0.11 0.04,-0.21 0.12,-0.29 0.08,-0.07 0.19,-0.11 0.29,-0.09 0.94,0.12 1.89,0.21 2.83,0.27 0.19,0.01 0.34,0.17 0.34,0.37zm-0.34 -0.45l0 0 0 -0.03c-0.94,-0.06 -1.89,-0.15 -2.83,-0.27 -0.14,-0.02 -0.28,0.03 -0.38,0.12 -0.1,0.1 -0.16,0.23 -0.15,0.38 0.01,0.17 0.02,0.35 0.03,0.52 0.01,0.17 0.03,0.33 0.07,0.47 0.03,0.14 0.08,0.27 0.14,0.38 0.06,0.11 0.12,0.22 0.2,0.31 0.08,0.09 0.17,0.18 0.27,0.25 0.1,0.07 0.21,0.14 0.34,0.2 0.12,0.06 0.26,0.11 0.41,0.15 0.15,0.04 0.32,0.07 0.49,0.1l0 -0.03 0 0 -0 0.03c0.45,0.06 0.9,0.11 1.35,0.15 0.01,0 0.03,0 0.04,0 0.12,0 0.23,-0.04 0.32,-0.13 0.1,-0.09 0.16,-0.22 0.16,-0.35l0 -1.81c0,-0.25 -0.2,-0.46 -0.45,-0.48l-0 0.03zm8.79 0.2c-0.01,0.17 -0.02,0.35 -0.03,0.52 -0.01,0.16 -0.03,0.31 -0.07,0.45 -0.03,0.13 -0.07,0.25 -0.13,0.36 -0.05,0.1 -0.12,0.2 -0.19,0.29 -0.07,0.09 -0.16,0.16 -0.25,0.23 -0.09,0.07 -0.2,0.13 -0.32,0.19 -0.12,0.06 -0.25,0.1 -0.4,0.14 -0.15,0.04 -0.3,0.07 -0.48,0.09 -0.45,0.06 -0.9,0.11 -1.34,0.15 -0.1,0.01 -0.2,-0.03 -0.28,-0.09 -0.07,-0.07 -0.12,-0.17 -0.12,-0.27l0 -1.81c0,-0.19 0.15,-0.35 0.34,-0.37 0.94,-0.06 1.9,-0.15 2.83,-0.27 0.11,-0.01 0.22,0.02 0.3,0.1 0.08,0.07 0.12,0.18 0.12,0.29l0.03 0 -0.03 -0zm-0.04 -0.37c-0.1,-0.1 -0.25,-0.14 -0.38,-0.12 -0.94,0.12 -1.89,0.21 -2.82,0.27 -0.25,0.02 -0.45,0.22 -0.45,0.48l0 1.81c0,0.13 0.06,0.26 0.16,0.35 0.09,0.08 0.2,0.13 0.32,0.13 0.01,0 0.03,-0 0.04,-0 0.45,-0.04 0.9,-0.09 1.35,-0.15 0.17,-0.02 0.34,-0.06 0.49,-0.1 0.15,-0.04 0.29,-0.09 0.41,-0.15 0.12,-0.06 0.24,-0.13 0.34,-0.2 0.1,-0.08 0.19,-0.16 0.27,-0.25 0.08,-0.09 0.14,-0.2 0.2,-0.31 0.06,-0.12 0.1,-0.25 0.14,-0.38 0.04,-0.15 0.06,-0.3 0.07,-0.47 0.01,-0.17 0.02,-0.35 0.03,-0.52l-0.03 -0 0.03 0c0.01,-0.14 -0.05,-0.28 -0.15,-0.38zm-4.11 -14.34c-0.01,0.31 -0.03,0.62 -0.05,0.91 -0.01,0.1 -0.03,0.19 -0.06,0.28 -0.03,0.09 -0.07,0.17 -0.11,0.25 -0.05,0.08 -0.1,0.15 -0.16,0.21 -0.06,0.06 -0.13,0.11 -0.21,0.16 -0.07,0.04 -0.16,0.08 -0.24,0.11 -0.09,0.03 -0.17,0.04 -0.26,0.05l0 0.08 -0 -0.08c-0.25,0.02 -0.51,0.02 -0.77,0.02 -0.27,0 -0.56,-0.01 -0.83,-0.02l-0 0.08 0 -0.08c-0.1,-0 -0.2,-0.03 -0.3,-0.06 -0.11,-0.04 -0.2,-0.09 -0.29,-0.15 -0.09,-0.06 -0.17,-0.14 -0.23,-0.23 -0.06,-0.09 -0.12,-0.19 -0.15,-0.29 -0.04,-0.1 -0.06,-0.21 -0.07,-0.32 -0.03,-0.31 -0.04,-0.63 -0.05,-0.95 -0.01,-0.32 -0.01,-0.65 0,-0.98 0.01,-0.33 0.03,-0.67 0.05,-1.01 0.01,-0.11 0.03,-0.22 0.07,-0.32 0.04,-0.11 0.09,-0.21 0.15,-0.29 0.06,-0.09 0.14,-0.16 0.23,-0.22 0.08,-0.06 0.18,-0.11 0.29,-0.15 0.1,-0.04 0.21,-0.06 0.31,-0.06 0.28,-0.02 0.55,-0.03 0.83,-0.02 0.26,0 0.52,0.01 0.77,0.02 0.1,0 0.21,0.03 0.31,0.06 0.1,0.04 0.2,0.09 0.29,0.15 0.09,0.06 0.16,0.14 0.23,0.23 0.06,0.09 0.12,0.18 0.15,0.29 0.04,0.1 0.06,0.21 0.07,0.32l0.08 -0.01 -0.08 0.01c0.03,0.36 0.04,0.71 0.05,1.04 0.01,0.33 0.01,0.66 0,0.98zm0.11 -2.03c-0.01,-0.12 -0.03,-0.24 -0.08,-0.36 -0.04,-0.12 -0.1,-0.23 -0.17,-0.33 -0.07,-0.1 -0.16,-0.19 -0.26,-0.26 -0.1,-0.07 -0.21,-0.13 -0.33,-0.17 -0.12,-0.04 -0.24,-0.07 -0.35,-0.07 -0.26,-0.01 -0.52,-0.02 -0.78,-0.02 -0.28,-0 -0.56,0.01 -0.84,0.02l0 0.08 -0 -0.08c-0.12,0.01 -0.24,0.03 -0.35,0.07 -0.12,0.04 -0.23,0.1 -0.33,0.17 -0.1,0.07 -0.19,0.16 -0.26,0.26 -0.07,0.1 -0.13,0.21 -0.18,0.33 -0.04,0.12 -0.07,0.24 -0.08,0.36 -0.03,0.34 -0.04,0.68 -0.05,1.01 -0.01,0.33 -0.01,0.66 0,0.99 0.01,0.32 0.03,0.64 0.05,0.95 0.01,0.12 0.04,0.24 0.08,0.36 0.04,0.12 0.1,0.24 0.18,0.34 0.08,0.1 0.16,0.19 0.27,0.26 0.1,0.07 0.21,0.13 0.33,0.17 0.11,0.04 0.23,0.06 0.35,0.07 0.27,0.02 0.54,0.02 0.82,0.02l0.02 0c0.26,0 0.53,-0.01 0.78,-0.02 0.1,-0 0.2,-0.02 0.3,-0.05 0.1,-0.03 0.19,-0.07 0.28,-0.12 0.09,-0.05 0.17,-0.11 0.24,-0.18 0.07,-0.07 0.13,-0.15 0.19,-0.24 0.05,-0.09 0.1,-0.18 0.13,-0.29 0.03,-0.1 0.06,-0.21 0.06,-0.32 0.03,-0.3 0.04,-0.61 0.05,-0.92 0.01,-0.32 0.01,-0.65 0,-0.99 -0.01,-0.33 -0.03,-0.69 -0.05,-1.05zm-4.42 15.72c0,0.01 0,0.02 -0,0.03 -0.01,0.09 -0.05,0.18 -0.11,0.24 -0.06,0.05 -0.13,0.09 -0.21,0.1 -0.02,0 -0.04,0 -0.07,0 -0.98,-0.06 -1.97,-0.16 -2.94,-0.29 -0.01,0 -0.02,-0 -0.03,-0 -0.16,-0.03 -0.28,-0.17 -0.29,-0.34l0 0c-0.01,-0.32 -0.03,-0.64 -0.04,-0.96 -0.01,-0.23 -0.02,-0.46 -0.03,-0.69l-0.03 -0 0 0 0.03 -0c-0,-0.01 -0,-0.01 -0,-0.02 0,-0.1 0.05,-0.2 0.12,-0.26 0.08,-0.07 0.19,-0.11 0.29,-0.09l0 -0.03 0 0 -0 0.03 0.04 0c0.96,0.13 1.95,0.22 2.92,0.28 0.01,0 0.02,0 0.03,0 0.15,0.02 0.27,0.14 0.3,0.29 0,0.01 0,0.02 0,0.03 0,0.01 0,0.03 0,0.04l0 1.64zm0.11 -1.64l0 -0.02c0,-0.01 -0,-0.02 -0,-0.03 -0.02,-0.23 -0.21,-0.41 -0.44,-0.43l-0 0.03 0 0 0 -0.03c-0.97,-0.06 -1.95,-0.15 -2.91,-0.28l-0.04 -0 -0 0.03 0 -0.03c-0.14,-0.02 -0.28,0.03 -0.38,0.12 -0.1,0.09 -0.16,0.23 -0.15,0.37 0.02,0.55 0.04,1.1 0.06,1.65 0.01,0.23 0.19,0.42 0.42,0.45 0.98,0.13 1.97,0.22 2.95,0.29 0.01,0 0.02,0 0.03,0 0.12,0 0.24,-0.05 0.33,-0.13 0.1,-0.09 0.15,-0.22 0.15,-0.35l0 -1.64 -0.03 0 0 0 0.03 0zm-4.02 -3.2l0 0 0 0zm3.91 1.93c0,0.1 -0.04,0.2 -0.12,0.27 -0.07,0.07 -0.17,0.1 -0.27,0.1l-0 0.03 0 0 0 -0.03c-1.01,-0.07 -2.04,-0.17 -3.05,-0.3 -0.18,-0.03 -0.31,-0.17 -0.32,-0.35 -0.01,-0.55 -0.03,-1.1 -0.04,-1.64 -0,-0.11 0.04,-0.21 0.12,-0.28 0.08,-0.07 0.19,-0.1 0.29,-0.09 1,0.13 2.03,0.23 3.04,0.29 0.19,0.01 0.34,0.17 0.34,0.37l0 1.64zm0.11 -1.64c0,-0.25 -0.2,-0.46 -0.45,-0.48l-0 0.03 0 0 0 -0.03c-1.01,-0.06 -2.03,-0.16 -3.03,-0.29 -0.14,-0.02 -0.28,0.02 -0.38,0.12 -0.1,0.09 -0.16,0.23 -0.16,0.36 0.01,0.55 0.02,1.11 0.04,1.65 0.01,0.23 0.18,0.43 0.41,0.46 1.01,0.13 2.04,0.24 3.06,0.3 0.01,0 0.02,0 0.03,0 0.12,0 0.24,-0.05 0.33,-0.13 0.1,-0.09 0.15,-0.22 0.15,-0.35l0 -1.64zm-0.11 -1.27c0,0.1 -0.04,0.2 -0.12,0.27 -0.07,0.07 -0.17,0.1 -0.27,0.1l-0 0.03 0 0 0 -0.03c-1.03,-0.07 -2.08,-0.17 -3.11,-0.31l-0 0.03 0 -0.03c-0.18,-0.02 -0.32,-0.18 -0.32,-0.36 -0,-0.54 -0.01,-1.1 -0.01,-1.64 0,-0.11 0.05,-0.21 0.13,-0.28 0.08,-0.07 0.19,-0.1 0.29,-0.09 1.01,0.13 2.04,0.23 3.06,0.3 0.19,0.01 0.34,0.17 0.34,0.37l0 1.64zm0.11 -1.64c0,-0.25 -0.2,-0.46 -0.45,-0.48 -1.02,-0.06 -2.05,-0.16 -3.05,-0.3 -0.14,-0.02 -0.27,0.02 -0.38,0.11 -0.1,0.09 -0.16,0.22 -0.16,0.36 0,0.54 0,1.1 0.01,1.64 0,0.23 0.18,0.44 0.41,0.47l0 -0.03 0 0 -0 0.03c1.03,0.14 2.08,0.24 3.11,0.31 0.01,0 0.02,0 0.03,0 0.12,0 0.24,-0.05 0.33,-0.13 0.1,-0.09 0.15,-0.22 0.15,-0.35l0 -1.64zm-0.11 -1.27c0,0.1 -0.04,0.2 -0.12,0.27 -0.07,0.07 -0.17,0.11 -0.27,0.1l0 0c-1.03,-0.07 -2.08,-0.17 -3.11,-0.31 -0.18,-0.03 -0.32,-0.18 -0.32,-0.37 0,-0.55 0.01,-1.1 0.02,-1.64 0,-0.1 0.05,-0.2 0.13,-0.27 0.08,-0.07 0.18,-0.1 0.29,-0.09l0 -0.03 -0 0.03c1.01,0.13 2.03,0.23 3.04,0.29 0.19,0.01 0.34,0.17 0.34,0.37l0 1.64zm0.11 -1.64c0,-0.25 -0.2,-0.46 -0.45,-0.48l-0 0.03 0 0 0 -0.03c-1.01,-0.06 -2.03,-0.16 -3.03,-0.29 -0.14,-0.02 -0.27,0.02 -0.37,0.11 -0.1,0.09 -0.16,0.22 -0.17,0.35l0.03 0 0 0 -0.03 0c-0.01,0.54 -0.02,1.1 -0.02,1.64 -0,0.24 0.18,0.44 0.41,0.48 1.03,0.14 2.08,0.24 3.12,0.31 0.01,0 0.02,0 0.03,0 0.12,0 0.24,-0.05 0.33,-0.13 0.1,-0.09 0.15,-0.22 0.15,-0.35l0 -1.64zm8.57 1.33c0,0.18 -0.13,0.34 -0.32,0.37 -1.03,0.14 -2.07,0.24 -3.11,0.31 -0.1,0.01 -0.2,-0.03 -0.27,-0.1 -0.07,-0.07 -0.12,-0.17 -0.12,-0.27l0 -1.64c0,-0.19 0.15,-0.35 0.34,-0.37 1.01,-0.06 2.03,-0.16 3.04,-0.29l-0 -0.03 0 0.03c0.1,-0.01 0.21,0.02 0.29,0.09 0.08,0.07 0.12,0.17 0.13,0.27 0.01,0.54 0.02,1.09 0.02,1.64zm-0.45 -2.1c-1,0.13 -2.02,0.23 -3.03,0.29 -0.25,0.02 -0.45,0.22 -0.45,0.48l0 1.64c0,0.13 0.05,0.26 0.15,0.35 0.09,0.08 0.21,0.13 0.33,0.13 0.01,0 0.02,0 0.03,0l-0 -0.03 0 0 0 0.03c1.04,-0.07 2.09,-0.17 3.12,-0.31 0.24,-0.03 0.41,-0.24 0.41,-0.48 -0,-0.53 -0.01,-1.08 -0.02,-1.64 -0,-0.14 -0.06,-0.26 -0.17,-0.35 -0.1,-0.09 -0.24,-0.13 -0.37,-0.11zm-3.95 5.38c0,0.2 -0.16,0.36 -0.35,0.37 -0.99,0.03 -1.99,0.03 -2.98,0 -0.2,-0.01 -0.35,-0.17 -0.35,-0.37l0 -1.64c0,-0.1 0.04,-0.19 0.11,-0.26 0.07,-0.07 0.17,-0.11 0.27,-0.1 0.97,0.03 1.96,0.03 2.93,0 0.1,-0 0.2,0.03 0.27,0.1 0.07,0.07 0.11,0.16 0.11,0.26l0 1.64zm0.11 -1.64c0,-0.13 -0.05,-0.25 -0.15,-0.34 -0.09,-0.09 -0.22,-0.14 -0.35,-0.13 -0.97,0.03 -1.95,0.03 -2.92,0 -0.13,-0 -0.25,0.04 -0.35,0.13 -0.09,0.09 -0.15,0.21 -0.15,0.34l0 1.64c0,0.26 0.2,0.47 0.46,0.48 0.49,0.02 0.99,0.03 1.49,0.03 0.5,0 1,-0.01 1.49,-0.03 0.26,-0.01 0.46,-0.22 0.46,-0.48l0 -1.64zm-0.11 -1.27c0,0.2 -0.16,0.36 -0.35,0.37 -0.99,0.03 -1.99,0.03 -2.98,0 -0.2,-0.01 -0.35,-0.17 -0.35,-0.37l0 -1.64c0,-0.1 0.04,-0.19 0.11,-0.26 0.07,-0.07 0.17,-0.11 0.27,-0.1 0.97,0.03 1.96,0.03 2.93,0l0 -0.03 0 0.03c0,0 0.01,0 0.01,0 0.1,0 0.19,0.04 0.25,0.1 0.07,0.07 0.11,0.16 0.11,0.26l0 1.64zm0.11 -1.64c0,-0.13 -0.05,-0.25 -0.15,-0.34 -0.09,-0.09 -0.21,-0.13 -0.33,-0.13 -0.01,0 -0.01,0 -0.02,0 -0.97,0.03 -1.95,0.03 -2.92,0 -0.13,-0 -0.25,0.04 -0.35,0.13 -0.09,0.09 -0.15,0.21 -0.15,0.34l0 1.64c0,0.26 0.2,0.47 0.46,0.48 0.49,0.02 0.99,0.03 1.49,0.03 0.5,0 1,-0.01 1.49,-0.03 0.26,-0.01 0.46,-0.22 0.46,-0.48l0 -1.64zm4.27 5.46c-0.01,0.56 -0.02,1.11 -0.04,1.64 -0,0.18 -0.14,0.33 -0.32,0.35 -1.01,0.14 -2.03,0.24 -3.05,0.3 -0.1,0.01 -0.2,-0.03 -0.27,-0.1 -0.07,-0.07 -0.12,-0.16 -0.12,-0.27l0 -1.64c0,-0.19 0.15,-0.35 0.34,-0.37 1.01,-0.06 2.03,-0.16 3.04,-0.29 0.11,-0.01 0.21,0.02 0.29,0.09 0.08,0.07 0.12,0.17 0.12,0.28l0.03 0 -0.03 0zm0.11 0c0,-0.14 -0.06,-0.27 -0.16,-0.36 -0.1,-0.09 -0.24,-0.13 -0.38,-0.12 -1,0.13 -2.02,0.23 -3.03,0.29 -0.25,0.02 -0.45,0.22 -0.45,0.48l0 1.64c0,0.13 0.06,0.26 0.15,0.35 0.09,0.08 0.21,0.13 0.33,0.13 0.01,0 0.02,0 0.03,-0l-0 -0.03 0 0 0 0.03c1.02,-0.06 2.05,-0.17 3.06,-0.3 0.23,-0.03 0.41,-0.22 0.41,-0.46 0.01,-0.55 0.03,-1.11 0.04,-1.65zm-4.5 1.99c0,0.2 -0.16,0.36 -0.35,0.37 -0.99,0.03 -1.99,0.03 -2.98,0 -0.2,-0.01 -0.35,-0.17 -0.35,-0.37l0 -1.64c0,-0.1 0.04,-0.19 0.11,-0.26 0.07,-0.07 0.17,-0.11 0.27,-0.1 0.97,0.03 1.96,0.03 2.93,0 0.1,-0 0.2,0.03 0.27,0.1 0.07,0.07 0.11,0.16 0.11,0.26l0 1.64zm0.11 -1.64c0,-0.13 -0.05,-0.25 -0.15,-0.34 -0.09,-0.09 -0.21,-0.13 -0.33,-0.13 -0.01,0 -0.01,0 -0.02,0 -0.97,0.03 -1.95,0.03 -2.92,0 -0.13,-0 -0.25,0.04 -0.35,0.13 -0.09,0.09 -0.15,0.21 -0.15,0.34l0 1.64c0,0.26 0.2,0.47 0.46,0.48 0.49,0.02 0.99,0.03 1.49,0.03 0.5,0 1,-0.01 1.49,-0.03 0.26,-0.01 0.46,-0.22 0.46,-0.48l0 -1.64zm4.16 4.22l-0.03 -0c-0.01,0.18 -0.14,0.32 -0.32,0.35 -0.97,0.13 -1.96,0.22 -2.94,0.29 -0.1,0.01 -0.2,-0.03 -0.27,-0.1 -0.07,-0.07 -0.12,-0.17 -0.12,-0.27l0 -1.64c0,-0.19 0.15,-0.35 0.34,-0.36 0.99,-0.06 1.98,-0.16 2.96,-0.29 0.11,-0.01 0.21,0.02 0.29,0.09 0.08,0.07 0.12,0.18 0.12,0.28 -0.02,0.56 -0.04,1.12 -0.07,1.65l0.03 0zm0.15 -1.65c0.01,-0.14 -0.05,-0.27 -0.16,-0.37 -0.1,-0.1 -0.24,-0.14 -0.38,-0.12 -0.98,0.13 -1.97,0.22 -2.96,0.29l0 0.01 -0 -0.01c-0.25,0.02 -0.45,0.22 -0.45,0.47l0 1.64c0,0.13 0.06,0.26 0.15,0.35 0.09,0.08 0.21,0.13 0.33,0.13 0.01,0 0.02,-0 0.03,-0l-0 -0.03 0 0 0 0.03c0.98,-0.06 1.98,-0.16 2.95,-0.29 0.23,-0.03 0.4,-0.22 0.41,-0.45 0.02,-0.55 0.05,-1.1 0.07,-1.65zm-4.42 1.98c0,0.2 -0.16,0.36 -0.35,0.37 -0.99,0.03 -1.99,0.03 -2.98,0 -0.2,-0.01 -0.35,-0.17 -0.35,-0.37l0 -1.64c0,-0.1 0.04,-0.19 0.11,-0.26 0.07,-0.07 0.17,-0.11 0.27,-0.1 0.97,0.03 1.96,0.03 2.93,0l0 -0.03 0 0.03c0,0 0.01,0 0.01,0 0.1,0 0.19,0.04 0.25,0.1 0.07,0.07 0.11,0.16 0.11,0.26l0 1.64zm0.11 -1.64c0,-0.13 -0.05,-0.25 -0.15,-0.34 -0.09,-0.09 -0.21,-0.13 -0.33,-0.13 -0.01,0 -0.01,0 -0.02,0 -0.97,0.03 -1.95,0.03 -2.92,0 -0.13,-0 -0.25,0.04 -0.35,0.13 -0.09,0.09 -0.15,0.21 -0.15,0.34l0 1.64c0,0.26 0.2,0.47 0.46,0.48 0.49,0.02 0.99,0.03 1.49,0.03 0.5,0 1,-0.01 1.49,-0.03 0.26,-0.01 0.46,-0.22 0.46,-0.48l0 -1.64zm-0.11 4.75c0,0.2 -0.15,0.36 -0.35,0.37 -0.99,0.05 -2,0.05 -2.99,0 -0.19,-0.01 -0.35,-0.17 -0.35,-0.37l0 -1.84c0,-0.1 0.04,-0.19 0.11,-0.26 0.07,-0.07 0.17,-0.11 0.27,-0.1l0 -0.04 0 0.01 -0 0.03c0.97,0.03 1.96,0.03 2.93,0l-0 -0.04 0 0.04c0.1,-0 0.2,0.04 0.27,0.1 0.07,0.07 0.11,0.16 0.11,0.26l0 1.84zm-0.38 -2.32c-0.97,0.03 -1.95,0.03 -2.92,0 -0.13,-0 -0.25,0.04 -0.35,0.13 -0.09,0.09 -0.15,0.22 -0.15,0.34l0 1.84c0,0.25 0.2,0.46 0.45,0.48 0.5,0.02 1,0.03 1.5,0.03 0.5,0 1,-0.01 1.5,-0.03 0.25,-0.01 0.45,-0.22 0.45,-0.48l0 -1.84c0,-0.13 -0.05,-0.25 -0.15,-0.34 -0.09,-0.09 -0.22,-0.14 -0.35,-0.13zm0.83 4.08c-0.03,0.04 -0.08,0.07 -0.13,0.08 -1.43,0.19 -2.88,0.19 -4.31,0l-0 0.03 0 -0.03c-0.07,-0.01 -0.13,-0.06 -0.16,-0.12 -0.03,-0.07 -0.02,-0.14 0.03,-0.2 0.04,-0.06 0.11,-0.09 0.18,-0.08 1.39,0.19 2.81,0.19 4.2,0 0.11,-0.02 0.21,0.06 0.22,0.17 0.01,0.05 -0.01,0.11 -0.04,0.15zm0.03 -0.37c-0.07,-0.05 -0.15,-0.07 -0.23,-0.06 -1.38,0.19 -2.79,0.19 -4.17,0 -0.11,-0.01 -0.22,0.03 -0.29,0.12 -0.07,0.09 -0.08,0.21 -0.04,0.31 0.04,0.1 0.14,0.18 0.25,0.19 0.72,0.1 1.44,0.14 2.17,0.14 0.72,0 1.45,-0.05 2.17,-0.14 0.08,-0.01 0.16,-0.05 0.21,-0.12 0.05,-0.07 0.07,-0.15 0.06,-0.23 -0.01,-0.08 -0.05,-0.16 -0.12,-0.21zm-7.47 -27.3c-0.25,0 -0.45,-0.2 -0.45,-0.45 0,-0.25 0.2,-0.45 0.45,-0.45 0.25,0 0.45,0.2 0.45,0.45 0,0.25 -0.2,0.45 -0.45,0.45zm0 -0.98c-0.29,0 -0.53,0.24 -0.53,0.53 0,0.29 0.24,0.53 0.53,0.53 0.29,0 0.53,-0.24 0.53,-0.53 0,-0.29 -0.24,-0.53 -0.53,-0.53zm10.47 0.98c-0.25,0 -0.45,-0.2 -0.45,-0.45 0,-0.25 0.2,-0.45 0.45,-0.45 0.25,0 0.45,0.2 0.45,0.45 0,0.25 -0.2,0.45 -0.45,0.45zm0 -0.98c-0.29,0 -0.53,0.24 -0.53,0.53 0,0.29 0.24,0.53 0.53,0.53 0.29,0 0.53,-0.24 0.53,-0.53 0,-0.29 -0.24,-0.53 -0.53,-0.53zm-6.74 -20.83l2.83 0c0.09,0 0.17,0.08 0.17,0.17 0,0.09 -0.08,0.17 -0.17,0.17l-2.83 0c-0.09,0 -0.17,-0.08 -0.17,-0.17 0,-0.09 0.08,-0.17 0.17,-0.17zm0 0.42l2.83 0c0.14,0 0.25,-0.11 0.25,-0.25 0,-0.14 -0.11,-0.25 -0.25,-0.25l-2.83 0c-0.14,0 -0.25,0.11 -0.25,0.25 0,0.14 0.11,0.25 0.25,0.25zm6.76 16.67l-10.69 0 0 -13.9 10.69 0 0 13.9zm0.16 -14.07l-11.02 0 0 14.23 11.02 0 0 -14.23zm-12.15 13.78c-0,-0.23 -0.01,-0.46 -0.02,-0.7 -0.06,-1.62 -0.04,-3.14 -0.03,-4.62 0,-0.63 0.01,-1.27 0.01,-1.92 0,-1.57 0.06,-3.24 0.13,-4.85 0.02,-0.61 0.05,-1.21 0.07,-1.82 0.06,-1.68 0.42,-2.88 1.08,-3.55 1.24,-1.26 3.85,-1.26 5.41,-1.27 1.56,0 4.16,0 5.41,1.27 0.66,0.67 1.03,1.87 1.08,3.55 0.02,0.61 0.04,1.22 0.07,1.82 0.06,1.61 0.12,3.28 0.13,4.85 0,0.65 0,1.28 0.01,1.91 0.01,1.48 0.02,3 -0.03,4.62 -0.01,0.24 -0.01,0.47 -0.02,0.7 -0.06,2.39 -0.1,3.97 -2.63,3.97l-8.03 0c-2.54,0 -2.57,-1.58 -2.63,-3.97zm13.45 0c0,-0.23 0.01,-0.46 0.02,-0.69 0.05,-1.62 0.04,-3.15 0.03,-4.63 -0,-0.63 -0.01,-1.27 -0.01,-1.91 0,-1.57 -0.06,-3.24 -0.12,-4.86 -0.02,-0.61 -0.05,-1.22 -0.07,-1.82 -0.06,-1.75 -0.43,-2.95 -1.13,-3.66 -1.29,-1.31 -3.94,-1.31 -5.53,-1.31 -1.58,0 -4.23,0 -5.53,1.31 -0.69,0.7 -1.07,1.93 -1.13,3.66 -0.02,0.61 -0.04,1.21 -0.07,1.82 -0.06,1.61 -0.12,3.28 -0.12,4.86 0,0.65 -0,1.28 -0.01,1.91 -0.01,1.48 -0.03,3.01 0.03,4.63 0.01,0.24 0.01,0.47 0.02,0.69 0.06,2.4 0.1,4.13 2.79,4.13l8.03 0c2.7,0 2.74,-1.73 2.8,-4.13zm-2.09 13.61l-1.42 0c-0.13,0 -0.23,-0.1 -0.23,-0.23 0,-0.13 0.1,-0.23 0.23,-0.23l1.42 0c0.13,0 0.23,0.1 0.23,0.23 0,0.13 -0.1,0.23 -0.23,0.23zm0 -0.55l-1.42 0c-0.17,0 -0.32,0.14 -0.32,0.31 0,0.17 0.14,0.32 0.32,0.32l1.42 0c0.17,0 0.31,-0.14 0.31,-0.32 0,-0.17 -0.14,-0.31 -0.31,-0.31zm-8.07 0.55l-1.42 0c-0.13,0 -0.23,-0.1 -0.23,-0.23 0,-0.13 0.1,-0.23 0.23,-0.23l1.42 0c0.13,0 0.23,0.1 0.23,0.23 0,0.13 -0.1,0.23 -0.23,0.23zm0 -0.55l-1.42 0c-0.17,0 -0.32,0.14 -0.32,0.31 0,0.17 0.14,0.32 0.32,0.32l1.42 0c0.17,0 0.31,-0.14 0.31,-0.32 0,-0.17 -0.14,-0.31 -0.31,-0.31z"/>
 </g>
</svg>
